1214
-50 -50 4050 3050
0 25 110 25 110 15 0 15 
200 25 290 25 290 15 200 15 
340 25 370 25 370 15 340 15 
460 25 700 25 700 15 460 15 
830 25 930 25 930 15 830 15 
980 25 1070 25 1070 15 980 15 
1120 25 1130 25 1130 15 1120 15 
1180 25 1350 25 1350 15 1180 15 
1430 25 1510 25 1510 15 1430 15 
1600 25 1690 25 1690 15 1600 15 
1770 25 1850 25 1850 15 1770 15 
1940 25 2230 25 2230 15 1940 15 
2320 25 2370 25 2370 15 2320 15 
2420 25 2490 25 2490 15 2420 15 
2540 25 2650 25 2650 15 2540 15 
2700 25 2760 25 2760 15 2700 15 
2860 25 3000 25 3000 15 2860 15 
3130 25 3160 25 3160 15 3130 15 
3290 25 3350 25 3350 15 3290 15 
3440 25 3520 25 3520 15 3440 15 
3620 25 3680 25 3680 15 3620 15 
3810 25 3870 25 3870 15 3810 15 
3920 25 3950 25 3950 15 3920 15 
4030 25 4100 25 4100 15 4030 15 
4230 25 4350 25 4350 15 4230 15 
4400 25 4690 25 4690 15 4400 15 
4770 25 4960 25 4960 15 4770 15 
5090 25 5110 25 5110 15 5090 15 
5190 25 5290 25 5290 15 5190 15 
5370 25 5390 25 5390 15 5370 15 
5440 25 5450 25 5450 15 5440 15 
5500 25 5550 25 5550 15 5500 15 
5630 25 5660 25 5660 15 5630 15 
5790 25 5850 25 5850 15 5790 15 
5940 25 6130 25 6130 15 5940 15 
6180 25 6290 25 6290 15 6180 15 
6380 25 6860 25 6860 15 6380 15 
6960 25 7050 25 7050 15 6960 15 
7100 25 7210 25 7210 15 7100 15 
7300 25 7430 25 7430 15 7300 15 
7520 25 7620 25 7620 15 7520 15 
7750 25 7920 25 7920 15 7750 15 
0 45 130 45 130 35 0 35 
230 45 390 45 390 35 230 35 
490 45 1530 45 1530 35 490 35 
1630 45 1870 45 1870 35 1630 35 
1970 45 2250 45 2250 35 1970 35 
2350 45 3370 45 3370 35 2350 35 
3420 45 5870 45 5870 35 3420 35 
5920 45 6310 45 6310 35 5920 35 
6410 45 7230 45 7230 35 6410 35 
7330 45 7450 45 7450 35 7330 35 
7550 45 7920 45 7920 35 7550 35 
0 65 150 65 150 55 0 55 
190 65 410 65 410 55 190 55 
450 65 1550 65 1550 55 450 55 
1590 65 1890 65 1890 55 1590 55 
1930 65 2270 65 2270 55 1930 55 
2310 65 3390 65 3390 55 2310 55 
3430 65 5890 65 5890 55 3430 55 
5930 65 6330 65 6330 55 5930 55 
6370 65 7250 65 7250 55 6370 55 
7290 65 7470 65 7470 55 7290 55 
7510 65 7920 65 7920 55 7510 55 
0 85 100 85 100 75 0 75 
200 85 360 85 360 75 200 75 
460 85 550 85 550 75 460 75 
640 85 1070 85 1070 75 640 75 
1140 85 1230 85 1230 75 1140 75 
1280 85 1500 85 1500 75 1280 75 
1600 85 1840 85 1840 75 1600 75 
1940 85 2070 85 2070 75 1940 75 
2160 85 2220 85 2220 75 2160 75 
2320 85 2470 85 2470 75 2320 75 
2540 85 2870 85 2870 75 2540 75 
2920 85 3340 85 3340 75 2920 75 
3440 85 4330 85 4330 75 3440 75 
4400 85 4450 85 4450 75 4400 75 
4500 85 4590 85 4590 75 4500 75 
4640 85 4830 85 4830 75 4640 75 
4880 85 5390 85 5390 75 4880 75 
5460 85 5840 85 5840 75 5460 75 
5940 85 5970 85 5970 75 5940 75 
6020 85 6280 85 6280 75 6020 75 
6380 85 6490 85 6490 75 6380 75 
6580 85 6650 85 6650 75 6580 75 
6700 85 6730 85 6730 75 6700 75 
6780 85 7200 85 7200 75 6780 75 
7300 85 7420 85 7420 75 7300 75 
7520 85 7920 85 7920 75 7520 75 
0 125 50 125 50 115 0 115 
140 125 230 125 230 115 140 115 
280 125 330 125 330 115 280 115 
400 125 640 125 640 115 400 115 
740 125 970 125 970 115 740 115 
1040 125 1250 125 1250 115 1040 115 
1320 125 1460 125 1460 115 1320 115 
1560 125 1850 125 1850 115 1560 115 
1940 125 2050 125 2050 115 1940 115 
2120 125 2130 125 2130 115 2120 115 
2180 125 2270 125 2270 115 2180 115 
2340 125 2790 125 2790 115 2340 115 
2840 125 2920 125 2920 115 2840 115 
3020 125 3050 125 3050 115 3020 115 
3140 125 4010 125 4010 115 3140 115 
4080 125 4130 125 4130 115 4080 115 
4200 125 4250 125 4250 115 4200 115 
4320 125 4490 125 4490 115 4320 115 
4560 125 4790 125 4790 115 4560 115 
4860 125 4930 125 4930 115 4860 115 
5000 125 5150 125 5150 115 5000 115 
5220 125 5310 125 5310 115 5220 115 
5400 125 5650 125 5650 115 5400 115 
5720 125 5810 125 5810 115 5720 115 
5900 125 6130 125 6130 115 5900 115 
6180 125 6330 125 6330 115 6180 115 
6380 125 6550 125 6550 115 6380 115 
6640 125 6890 125 6890 115 6640 115 
6960 125 7920 125 7920 115 6960 115 
0 145 690 145 690 135 0 135 
730 145 1510 145 1510 135 730 135 
1550 145 2970 145 2970 135 1550 135 
3010 145 7920 145 7920 135 3010 135 
0 165 670 165 670 155 0 155 
720 165 1490 165 1490 155 720 155 
1540 165 2950 165 2950 155 1540 155 
3000 165 3370 165 3370 155 3000 155 
3400 165 3590 165 3590 155 3400 155 
3620 165 6770 165 6770 155 3620 155 
6800 165 7920 165 7920 155 6800 155 
0 185 3330 185 3330 175 0 175 
3420 185 3550 185 3550 175 3420 175 
3640 185 6730 185 6730 175 3640 175 
6820 185 7920 185 7920 175 6820 175 
0 205 350 205 350 195 0 195 
400 205 470 205 470 195 400 195 
550 205 650 205 650 195 550 195 
740 205 770 205 770 195 740 195 
850 205 990 205 990 195 850 195 
1040 205 1150 205 1150 195 1040 195 
1230 205 1250 205 1250 195 1230 195 
1300 205 1310 205 1310 195 1300 195 
1360 205 1470 205 1470 195 1360 195 
1560 205 1570 205 1570 195 1560 195 
1650 205 1770 205 1770 195 1650 195 
1820 205 1970 205 1970 195 1820 195 
2020 205 2070 205 2070 195 2020 195 
2120 205 2270 205 2270 195 2120 195 
2320 205 2330 205 2330 195 2320 195 
2380 205 2470 205 2470 195 2380 195 
2520 205 2610 205 2610 195 2520 195 
2690 205 2930 205 2930 195 2690 195 
3020 205 3210 205 3210 195 3020 195 
3260 205 3310 205 3310 195 3260 195 
3360 205 3390 205 3390 195 3360 195 
3440 205 3530 205 3530 195 3440 195 
3580 205 3610 205 3610 195 3580 195 
3660 205 3690 205 3690 195 3660 195 
3740 205 3770 205 3770 195 3740 195 
3850 205 3890 205 3890 195 3850 195 
3940 205 4030 205 4030 195 3940 195 
4080 205 4150 205 4150 195 4080 195 
4200 205 4250 205 4250 195 4200 195 
4300 205 4310 205 4310 195 4300 195 
4360 205 4410 205 4410 195 4360 195 
4460 205 4510 205 4510 195 4460 195 
4560 205 4670 205 4670 195 4560 195 
4750 205 4790 205 4790 195 4750 195 
4840 205 4850 205 4850 195 4840 195 
4900 205 4930 205 4930 195 4900 195 
4980 205 4990 205 4990 195 4980 195 
5040 205 5170 205 5170 195 5040 195 
5220 205 5420 205 5420 195 5220 195 
5520 205 5590 205 5590 195 5520 195 
5640 205 5650 205 5650 195 5640 195 
5700 205 5710 205 5710 195 5700 195 
5760 205 5950 205 5950 195 5760 195 
6030 205 6190 205 6190 195 6030 195 
6270 205 6430 205 6430 195 6270 195 
6510 205 6710 205 6710 195 6510 195 
6760 205 6790 205 6790 195 6760 195 
6840 205 6890 205 6890 195 6840 195 
6940 205 6950 205 6950 195 6940 195 
7000 205 7920 205 7920 195 7000 195 
0 245 30 245 30 235 0 235 
120 245 130 245 130 235 120 235 
180 245 270 245 270 235 180 235 
320 245 350 245 350 235 320 235 
400 245 510 245 510 235 400 235 
600 245 710 245 710 235 600 235 
800 245 910 245 910 235 800 235 
990 245 1090 245 1090 235 990 235 
1140 245 1270 245 1270 235 1140 235 
1320 245 1330 245 1330 235 1320 235 
1380 245 1470 245 1470 235 1380 235 
1520 245 1580 245 1580 235 1520 235 
1710 245 1880 245 1880 235 1710 235 
1980 245 2240 245 2240 235 1980 235 
2370 245 2440 245 2440 235 2370 235 
2540 245 2610 245 2610 235 2540 235 
2700 245 2970 245 2970 235 2700 235 
3060 245 3300 245 3300 235 3060 235 
3400 245 3480 245 3480 235 3400 235 
3710 245 3770 245 3770 235 3710 235 
3820 245 3850 245 3850 235 3820 235 
3930 245 3990 245 3990 235 3930 235 
4080 245 4210 245 4210 235 4080 235 
4260 245 4750 245 4750 235 4260 235 
4840 245 4940 245 4940 235 4840 235 
5040 245 5060 245 5060 235 5040 235 
5190 245 5270 245 5270 235 5190 235 
5360 245 5480 245 5480 235 5360 235 
5580 245 5650 245 5650 235 5580 235 
5700 245 5730 245 5730 235 5700 235 
5780 245 5930 245 5930 235 5780 235 
5980 245 6130 245 6130 235 5980 235 
6180 245 6330 245 6330 235 6180 235 
6380 245 6410 245 6410 235 6380 235 
6460 245 6510 245 6510 235 6460 235 
6590 245 6750 245 6750 235 6590 235 
6830 245 6870 245 6870 235 6830 235 
6920 245 7920 245 7920 235 6920 235 
0 265 290 265 290 255 0 255 
380 265 7920 265 7920 255 380 255 
0 285 50 285 50 275 0 275 
100 285 330 285 330 275 100 275 
360 285 530 285 530 275 360 275 
580 285 730 285 730 275 580 275 
830 285 2630 285 2630 275 830 275 
2730 285 2990 285 2990 275 2730 275 
3040 285 4010 285 4010 275 3040 275 
4110 285 4770 285 4770 275 4110 275 
4870 285 5290 285 5290 275 4870 275 
5390 285 7920 285 7920 275 5390 275 
0 305 70 305 70 295 0 295 
110 305 550 305 550 295 110 295 
590 305 750 305 750 295 590 295 
790 305 2650 305 2650 295 790 295 
2690 305 3010 305 3010 295 2690 295 
3050 305 4030 305 4030 295 3050 295 
4070 305 4790 305 4790 295 4070 295 
4830 305 5310 305 5310 295 4830 295 
5350 305 7920 305 7920 295 5350 295 
0 325 20 325 20 315 0 315 
120 325 500 325 500 315 120 315 
600 325 700 325 700 315 600 315 
800 325 1250 325 1250 315 800 315 
1320 325 1750 325 1750 315 1320 315 
1840 325 2070 325 2070 315 1840 315 
2120 325 2170 325 2170 315 2120 315 
2220 325 2600 325 2600 315 2220 315 
2700 325 2830 325 2830 315 2700 315 
2920 325 2960 325 2960 315 2920 315 
3060 325 3070 325 3070 315 3060 315 
3160 325 3210 325 3210 315 3160 315 
3260 325 3980 325 3980 315 3260 315 
4080 325 4190 325 4190 315 4080 315 
4260 325 4350 325 4350 315 4260 315 
4400 325 4410 325 4410 315 4400 315 
4500 325 4610 325 4610 315 4500 315 
4660 325 4740 325 4740 315 4660 315 
4840 325 5260 325 5260 315 4840 315 
5360 325 5630 325 5630 315 5360 315 
5700 325 5790 325 5790 315 5700 315 
5840 325 5990 325 5990 315 5840 315 
6080 325 6110 325 6110 315 6080 315 
6180 325 6230 325 6230 315 6180 315 
6280 325 6310 325 6310 315 6280 315 
6380 325 6690 325 6690 315 6380 315 
6740 325 7920 325 7920 315 6740 315 
0 365 70 365 70 355 0 355 
160 365 260 365 260 355 160 355 
360 365 480 365 480 355 360 355 
580 365 630 365 630 355 580 355 
680 365 1050 365 1050 355 680 355 
1100 365 1270 365 1270 355 1100 355 
1320 365 1870 365 1870 355 1320 355 
1940 365 2390 365 2390 355 1940 355 
2440 365 2530 365 2530 355 2440 355 
2620 365 3090 365 3090 355 2620 355 
3140 365 3590 365 3590 355 3140 355 
3640 365 3850 365 3850 355 3640 355 
3940 365 4230 365 4230 355 3940 355 
4280 365 4330 365 4330 355 4280 355 
4380 365 4470 365 4470 355 4380 355 
4560 365 4860 365 4860 355 4560 355 
4960 365 5030 365 5030 355 4960 355 
5080 365 5120 365 5120 355 5080 355 
5220 365 5490 365 5490 355 5220 355 
5560 365 5770 365 5770 355 5560 355 
5820 365 6700 365 6700 355 5820 355 
6800 365 7170 365 7170 355 6800 355 
7220 365 7920 365 7920 355 7220 355 
0 385 310 385 310 375 0 375 
350 385 530 385 530 375 350 375 
570 385 4910 385 4910 375 570 375 
4950 385 5170 385 5170 375 4950 375 
5210 385 6750 385 6750 375 5210 375 
6790 385 7920 385 7920 375 6790 375 
0 405 290 405 290 395 0 395 
390 405 510 405 510 395 390 395 
610 405 3490 405 3490 395 610 395 
3520 405 3730 405 3730 395 3520 395 
3760 405 4890 405 4890 395 3760 395 
4990 405 5150 405 5150 395 4990 395 
5250 405 6270 405 6270 395 5250 395 
6300 405 6730 405 6730 395 6300 395 
6780 405 6930 405 6930 395 6780 395 
6960 405 7920 405 7920 395 6960 395 
0 425 3450 425 3450 415 0 415 
3540 425 3690 425 3690 415 3540 415 
3780 425 6230 425 6230 415 3780 415 
6320 425 6890 425 6890 415 6320 415 
6980 425 7920 425 7920 415 6980 415 
0 445 270 445 270 435 0 435 
360 445 490 445 490 435 360 435 
580 445 730 445 730 435 580 435 
810 445 890 445 890 435 810 435 
940 445 1130 445 1130 435 940 435 
1210 445 1410 445 1410 435 1210 435 
1460 445 1470 445 1470 435 1460 435 
1550 445 1640 445 1640 435 1550 435 
1770 445 1870 445 1870 435 1770 435 
1920 445 1930 445 1930 435 1920 435 
1980 445 2010 445 2010 435 1980 435 
2090 445 2180 445 2180 435 2090 435 
2310 445 2620 445 2620 435 2310 435 
2720 445 2730 445 2730 435 2720 435 
2810 445 2910 445 2910 435 2810 435 
2990 445 3220 445 3220 435 2990 435 
3320 445 3330 445 3330 435 3320 435 
3380 445 3430 445 3430 435 3380 435 
3480 445 3510 445 3510 435 3480 435 
3560 445 3670 445 3670 435 3560 435 
3720 445 3750 445 3750 435 3720 435 
3800 445 4030 445 4030 435 3800 435 
4080 445 4110 445 4110 435 4080 435 
4160 445 4570 445 4570 435 4160 435 
4650 445 4660 445 4660 435 4650 435 
4790 445 4870 445 4870 435 4790 435 
4960 445 5130 445 5130 435 4960 435 
5220 445 5370 445 5370 435 5220 435 
5450 445 5490 445 5490 435 5450 435 
5540 445 5550 445 5550 435 5540 435 
5730 445 5910 445 5910 435 5730 435 
5960 445 6070 445 6070 435 5960 435 
6150 445 6210 445 6210 435 6150 435 
6260 445 6290 445 6290 435 6260 435 
6340 445 6420 445 6420 435 6340 435 
6520 445 6570 445 6570 435 6520 435 
6620 445 6710 445 6710 435 6620 435 
6800 445 6870 445 6870 435 6800 435 
6920 445 6950 445 6950 435 6920 435 
7000 445 7030 445 7030 435 7000 435 
7110 445 7920 445 7920 435 7110 435 
0 485 370 485 370 475 0 475 
420 485 430 485 430 475 420 475 
480 485 570 485 570 475 480 475 
620 485 630 485 630 475 620 475 
680 485 850 485 850 475 680 475 
900 485 990 485 990 475 900 475 
1070 485 1270 485 1270 475 1070 475 
1320 485 1350 485 1350 475 1320 475 
1400 485 1450 485 1450 475 1400 475 
1500 485 1550 485 1550 475 1500 475 
1630 485 1730 485 1730 475 1630 475 
1780 485 1810 485 1810 475 1780 475 
1900 485 1970 485 1970 475 1900 475 
2020 485 2090 485 2090 475 2020 475 
2140 485 2170 485 2170 475 2140 475 
2220 485 2230 485 2230 475 2220 475 
2280 485 2450 485 2450 475 2280 475 
2500 485 2530 485 2530 475 2500 475 
2580 485 2630 485 2630 475 2580 475 
2680 485 2730 485 2730 475 2680 475 
2780 485 2850 485 2850 475 2780 475 
2900 485 2930 485 2930 475 2900 475 
2980 485 3050 485 3050 475 2980 475 
3100 485 3330 485 3330 475 3100 475 
3420 485 3480 485 3480 475 3420 475 
3610 485 3700 485 3700 475 3610 475 
3830 485 3860 485 3860 475 3830 475 
3960 485 4040 485 4040 475 3960 475 
4140 485 4170 485 4170 475 4140 475 
4250 485 4340 485 4340 475 4250 475 
4470 485 4490 485 4490 475 4470 475 
4540 485 4570 485 4570 475 4540 475 
4620 485 4870 485 4870 475 4620 475 
4920 485 4970 485 4970 475 4920 475 
5060 485 5170 485 5170 475 5060 475 
5220 485 5290 485 5290 475 5220 475 
5340 485 5370 485 5370 475 5340 475 
5420 485 5570 485 5570 475 5420 475 
5620 485 5890 485 5890 475 5620 475 
5940 485 6090 485 6090 475 5940 475 
6140 485 6150 485 6150 475 6140 475 
6200 485 6250 485 6250 475 6200 475 
6300 485 6370 485 6370 475 6300 475 
6420 485 6530 485 6530 475 6420 475 
6580 485 6650 485 6650 475 6580 475 
6730 485 7920 485 7920 475 6730 475 
0 505 1290 505 1290 495 0 495 
1380 505 2470 505 2470 495 1380 495 
2560 505 2870 505 2870 495 2560 495 
2960 505 4510 505 4510 495 2960 495 
4600 505 5310 505 5310 495 4600 495 
5400 505 7920 505 7920 495 5400 495 
0 525 1330 525 1330 515 0 515 
1360 525 1830 525 1830 515 1360 515 
1880 525 2510 525 2510 515 1880 515 
2540 525 2910 525 2910 515 2540 515 
2940 525 3350 525 3350 515 2940 515 
3400 525 4550 525 4550 515 3400 515 
4580 525 4990 525 4990 515 4580 515 
5090 525 5350 525 5350 515 5090 515 
5380 525 7920 525 7920 515 5380 515 
0 545 1850 545 1850 535 0 535 
1890 545 3370 545 3370 535 1890 535 
3410 545 5010 545 5010 535 3410 535 
5050 545 7920 545 7920 535 5050 535 
0 565 90 565 90 555 0 555 
180 565 250 565 250 555 180 555 
300 565 370 565 370 555 300 555 
440 565 570 565 570 555 440 555 
640 565 690 565 690 555 640 555 
780 565 830 565 830 555 780 555 
900 565 1130 565 1130 555 900 555 
1180 565 1210 565 1210 555 1180 555 
1260 565 1650 565 1650 555 1260 555 
1700 565 1800 565 1800 555 1700 555 
1900 565 2170 565 2170 555 1900 555 
2240 565 2350 565 2350 555 2240 555 
2440 565 3030 565 3030 555 2440 555 
3100 565 3190 565 3190 555 3100 555 
3240 565 3250 565 3250 555 3240 555 
3300 565 3320 565 3320 555 3300 555 
3420 565 3990 565 3990 555 3420 555 
4040 565 4710 565 4710 555 4040 555 
4760 565 4850 565 4850 555 4760 555 
4920 565 4960 565 4960 555 4920 555 
5060 565 5150 565 5150 555 5060 555 
5220 565 5450 565 5450 555 5220 555 
5500 565 5670 565 5670 555 5500 555 
5760 565 5870 565 5870 555 5760 555 
5940 565 5990 565 5990 555 5940 555 
6040 565 6090 565 6090 555 6040 555 
6160 565 6350 565 6350 555 6160 555 
6420 565 6510 565 6510 555 6420 555 
6580 565 7920 565 7920 555 6580 555 
0 605 40 605 40 595 0 595 
140 605 830 605 830 595 140 595 
900 605 1830 605 1830 595 900 595 
1880 605 2130 605 2130 595 1880 595 
2200 605 2420 605 2420 595 2200 595 
2520 605 2610 605 2610 595 2520 595 
2660 605 3990 605 3990 595 2660 595 
4060 605 4130 605 4130 595 4060 595 
4220 605 4550 605 4550 595 4220 595 
4620 605 5010 605 5010 595 4620 595 
5060 605 5210 605 5210 595 5060 595 
5260 605 5510 605 5510 595 5260 595 
5560 605 5610 605 5610 595 5560 595 
5660 605 6210 605 6210 595 5660 595 
6300 605 6470 605 6470 595 6300 595 
6520 605 7170 605 7170 595 6520 595 
7240 605 7920 605 7920 595 7240 595 
0 625 90 625 90 615 0 615 
130 625 2470 625 2470 615 130 615 
2510 625 7920 625 7920 615 2510 615 
0 645 70 645 70 635 0 635 
120 645 270 645 270 635 120 635 
300 645 2450 645 2450 635 300 635 
2500 645 2930 645 2930 635 2500 635 
2960 645 5790 645 5790 635 2960 635 
5820 645 5950 645 5950 635 5820 635 
5980 645 6850 645 6850 635 5980 635 
6880 645 7920 645 7920 635 6880 635 
0 665 230 665 230 655 0 655 
320 665 2890 665 2890 655 320 655 
2980 665 5750 665 5750 655 2980 655 
5840 665 5910 665 5910 655 5840 655 
6000 665 6810 665 6810 655 6000 655 
6900 665 7920 665 7920 655 6900 655 
0 685 50 685 50 675 0 675 
140 685 210 685 210 675 140 675 
260 685 290 685 290 675 260 675 
340 685 370 685 370 675 340 675 
450 685 550 685 550 675 450 675 
630 685 710 685 710 675 630 675 
760 685 850 685 850 675 760 675 
900 685 950 685 950 675 900 675 
1030 685 1090 685 1090 675 1030 675 
1170 685 1210 685 1210 675 1170 675 
1290 685 1350 685 1350 675 1290 675 
1430 685 1520 685 1520 675 1430 675 
1650 685 1690 685 1690 675 1650 675 
1770 685 1970 685 1970 675 1770 675 
2020 685 2150 685 2150 675 2020 675 
2200 685 2310 685 2310 675 2200 675 
2360 685 2430 685 2430 675 2360 675 
2520 685 2720 685 2720 675 2520 675 
2850 685 2870 685 2870 675 2850 675 
2920 685 2950 685 2950 675 2920 675 
3000 685 3040 685 3040 675 3000 675 
3170 685 3230 685 3230 675 3170 675 
3280 685 3370 685 3370 675 3280 675 
3450 685 3490 685 3490 675 3450 675 
3540 685 3590 685 3590 675 3540 675 
3640 685 3750 685 3750 675 3640 675 
3900 685 4010 685 4010 675 3900 675 
4060 685 4270 685 4270 675 4060 675 
4350 685 4420 685 4420 675 4350 675 
4520 685 4550 685 4550 675 4520 675 
4600 685 4610 685 4610 675 4600 675 
4790 685 4800 685 4800 675 4790 675 
4900 685 5110 685 5110 675 4900 675 
5190 685 5320 685 5320 675 5190 675 
5420 685 5730 685 5730 675 5420 675 
5780 685 5810 685 5810 675 5780 675 
5860 685 5890 685 5890 675 5860 675 
5940 685 5970 685 5970 675 5940 675 
6020 685 6070 685 6070 675 6020 675 
6120 685 6410 685 6410 675 6120 675 
6460 685 6610 685 6610 675 6460 675 
6690 685 6790 685 6790 675 6690 675 
6840 685 6870 685 6870 675 6840 675 
6920 685 6990 685 6990 675 6920 675 
7070 685 7170 685 7170 675 7070 675 
7220 685 7230 685 7230 675 7220 675 
7280 685 7920 685 7920 675 7280 675 
0 725 50 725 50 715 0 715 
130 725 190 725 190 715 130 715 
280 725 350 725 350 715 280 715 
400 725 460 725 460 715 400 715 
560 725 650 725 650 715 560 715 
700 725 730 725 730 715 700 715 
780 725 830 725 830 715 780 715 
920 725 1030 725 1030 715 920 715 
1120 725 1220 725 1220 715 1120 715 
1350 725 1730 725 1730 715 1350 715 
1820 725 1880 725 1880 715 1820 715 
1980 725 2030 725 2030 715 1980 715 
2080 725 2110 725 2110 715 2080 715 
2160 725 2430 725 2430 715 2160 715 
2510 725 2650 725 2650 715 2510 715 
2700 725 2710 725 2710 715 2700 715 
2760 725 2770 725 2770 715 2760 715 
2820 725 2850 725 2850 715 2820 715 
2900 725 2930 725 2930 715 2900 715 
2980 725 3070 725 3070 715 2980 715 
3120 725 3130 725 3130 715 3120 715 
3180 725 3230 725 3230 715 3180 715 
3320 725 3400 725 3400 715 3320 715 
3600 725 3630 725 3630 715 3600 715 
3710 725 3720 725 3720 715 3710 715 
3820 725 3930 725 3930 715 3820 715 
3980 725 4070 725 4070 715 3980 715 
4160 725 4310 725 4310 715 4160 715 
4400 725 4510 725 4510 715 4400 715 
4590 725 4690 725 4690 715 4590 715 
4740 725 4770 725 4770 715 4740 715 
4820 725 4930 725 4930 715 4820 715 
5020 725 5170 725 5170 715 5020 715 
5260 725 5330 725 5330 715 5260 715 
5380 725 5410 725 5410 715 5380 715 
5460 725 5470 725 5470 715 5460 715 
5520 725 5610 725 5610 715 5520 715 
5660 725 5670 725 5670 715 5660 715 
5850 725 5910 725 5910 715 5850 715 
5960 725 5970 725 5970 715 5960 715 
6020 725 6090 725 6090 715 6020 715 
6140 725 6170 725 6170 715 6140 715 
6220 725 6330 725 6330 715 6220 715 
6510 725 6590 725 6590 715 6510 715 
6640 725 6670 725 6670 715 6640 715 
6750 725 6780 725 6780 715 6750 715 
6910 725 7010 725 7010 715 6910 715 
7060 725 7090 725 7090 715 7060 715 
7140 725 7210 725 7210 715 7140 715 
7260 725 7920 725 7920 715 7260 715 
0 745 670 745 670 735 0 735 
760 745 2050 745 2050 735 760 735 
2140 745 2870 745 2870 735 2140 735 
2960 745 4710 745 4710 735 2960 735 
4800 745 5350 745 5350 735 4800 735 
5440 745 6110 745 6110 735 5440 735 
6200 745 7920 745 7920 735 6200 735 
0 765 210 765 210 755 0 755 
310 765 710 765 710 755 310 755 
740 765 850 765 850 755 740 755 
950 765 1050 765 1050 755 950 755 
1100 765 1750 765 1750 755 1100 755 
1850 765 2090 765 2090 755 1850 755 
2120 765 2910 765 2910 755 2120 755 
2940 765 3250 765 3250 755 2940 755 
3300 765 4090 765 4090 755 3300 755 
4190 765 4330 765 4330 755 4190 755 
4380 765 4750 765 4750 755 4380 755 
4780 765 4950 765 4950 755 4780 755 
5050 765 5190 765 5190 755 5050 755 
5290 765 5390 765 5390 755 5290 755 
5420 765 6150 765 6150 755 5420 755 
6180 765 7920 765 7920 755 6180 755 
0 785 230 785 230 775 0 775 
270 785 870 785 870 775 270 775 
910 785 1070 785 1070 775 910 775 
1110 785 1770 785 1770 775 1110 775 
1810 785 3270 785 3270 775 1810 775 
3310 785 4110 785 4110 775 3310 775 
4150 785 4350 785 4350 775 4150 775 
4390 785 4970 785 4970 775 4390 775 
5010 785 5210 785 5210 775 5010 775 
5250 785 7920 785 7920 775 5250 775 
0 805 180 805 180 795 0 795 
280 805 820 805 820 795 280 795 
920 805 1020 805 1020 795 920 795 
1120 805 1170 805 1170 795 1120 795 
1220 805 1410 805 1410 795 1220 795 
1500 805 1590 805 1590 795 1500 795 
1640 805 1720 805 1720 795 1640 795 
1820 805 2230 805 2230 795 1820 795 
2320 805 2630 805 2630 795 2320 795 
2700 805 2710 805 2710 795 2700 795 
2780 805 3010 805 3010 795 2780 795 
3060 805 3220 805 3220 795 3060 795 
3320 805 4060 805 4060 795 3320 795 
4160 805 4300 805 4300 795 4160 795 
4400 805 4850 805 4850 795 4400 795 
4900 805 4920 805 4920 795 4900 795 
5020 805 5160 805 5160 795 5020 795 
5260 805 5610 805 5610 795 5260 795 
5680 805 5890 805 5890 795 5680 795 
5960 805 6310 805 6310 795 5960 795 
6380 805 6570 805 6570 795 6380 795 
6640 805 6990 805 6990 795 6640 795 
7060 805 7920 805 7920 795 7060 795 
0 845 160 845 160 835 0 835 
260 845 1320 845 1320 835 260 835 
1420 845 1970 845 1970 835 1420 835 
2040 845 2330 845 2330 835 2040 835 
2380 845 2470 845 2470 835 2380 835 
2560 845 2850 845 2850 835 2560 835 
2900 845 2950 845 2950 835 2900 835 
3000 845 3470 845 3470 835 3000 835 
3560 845 3610 845 3610 835 3560 835 
3660 845 3710 845 3710 835 3660 835 
3780 845 3980 845 3980 835 3780 835 
4080 845 4480 845 4480 835 4080 835 
4580 845 4730 845 4730 835 4580 835 
4800 845 4970 845 4970 835 4800 835 
5020 845 5210 845 5210 835 5020 835 
5260 845 5460 845 5460 835 5260 835 
5560 845 5710 845 5710 835 5560 835 
5780 845 6300 845 6300 835 5780 835 
6400 845 6510 845 6510 835 6400 835 
6560 845 7920 845 7920 835 6560 835 
0 865 210 865 210 855 0 855 
250 865 1370 865 1370 855 250 855 
1410 865 4030 865 4030 855 1410 855 
4070 865 4530 865 4530 855 4070 855 
4570 865 5510 865 5510 855 4570 855 
5550 865 6350 865 6350 855 5550 855 
6390 865 7920 865 7920 855 6390 855 
0 885 190 885 190 875 0 875 
240 885 1350 885 1350 875 240 875 
1450 885 4010 885 4010 875 1450 875 
4110 885 4510 885 4510 875 4110 875 
4610 885 5490 885 5490 875 4610 875 
5590 885 5870 885 5870 875 5590 875 
5900 885 6330 885 6330 875 5900 875 
6380 885 6950 885 6950 875 6380 875 
6980 885 7920 885 7920 875 6980 875 
0 905 5830 905 5830 895 0 895 
5920 905 6910 905 6910 895 5920 895 
7000 905 7920 905 7920 895 7000 895 
0 925 30 925 30 915 0 915 
110 925 170 925 170 915 110 915 
260 925 330 925 330 915 260 915 
380 925 410 925 410 915 380 915 
490 925 590 925 590 915 490 915 
670 925 730 925 730 915 670 915 
780 925 870 925 870 915 780 915 
920 925 960 925 960 915 920 915 
1060 925 1150 925 1150 915 1060 915 
1200 925 1210 925 1210 915 1200 915 
1290 925 1330 925 1330 915 1290 915 
1420 925 1500 925 1500 915 1420 915 
1630 925 1670 925 1670 915 1630 915 
1750 925 1760 925 1760 915 1750 915 
1860 925 1990 925 1990 915 1860 915 
2040 925 2130 925 2130 915 2040 915 
2210 925 2600 925 2600 915 2210 915 
2800 925 3030 925 3030 915 2800 915 
3080 925 3140 925 3140 915 3080 915 
3270 925 3360 925 3360 915 3270 915 
3460 925 3710 925 3710 915 3460 915 
3760 925 3770 925 3770 915 3760 915 
3820 925 3850 925 3850 915 3820 915 
3900 925 3990 925 3990 915 3900 915 
4080 925 4170 925 4170 915 4080 915 
4220 925 4240 925 4240 915 4220 915 
4370 925 4490 925 4490 915 4370 915 
4580 925 4750 925 4750 915 4580 915 
4800 925 4850 925 4850 915 4800 915 
4930 925 5050 925 5050 915 4930 915 
5100 925 5310 925 5310 915 5100 915 
5360 925 5470 925 5470 915 5360 915 
5560 925 5730 925 5730 915 5560 915 
5780 925 5810 925 5810 915 5780 915 
5860 925 5890 925 5890 915 5860 915 
5940 925 5950 925 5950 915 5940 915 
6030 925 6090 925 6090 915 6030 915 
6140 925 6190 925 6190 915 6140 915 
6270 925 6310 925 6310 915 6270 915 
6400 925 6650 925 6650 915 6400 915 
6700 925 6740 925 6740 915 6700 915 
6840 925 6890 925 6890 915 6840 915 
6940 925 6970 925 6970 915 6940 915 
7020 925 7920 925 7920 915 7020 915 
0 965 90 965 90 955 0 955 
140 965 370 965 370 955 140 955 
420 965 530 965 530 955 420 955 
620 965 680 965 680 955 620 955 
810 965 930 965 930 955 810 955 
980 965 990 965 990 955 980 955 
1040 965 1150 965 1150 955 1040 955 
1240 965 1310 965 1310 955 1240 955 
1390 965 1470 965 1470 955 1390 955 
1550 965 1610 965 1610 955 1550 955 
1660 965 1670 965 1670 955 1660 955 
1720 965 1790 965 1790 955 1720 955 
1880 965 1910 965 1910 955 1880 955 
2000 965 2050 965 2050 955 2000 955 
2100 965 2130 965 2130 955 2100 955 
2180 965 2510 965 2510 955 2180 955 
2600 965 2730 965 2730 955 2600 955 
2810 965 2850 965 2850 955 2810 955 
2900 965 2970 965 2970 955 2900 955 
3060 965 3470 965 3470 955 3060 955 
3560 965 3660 965 3660 955 3560 955 
3760 965 3790 965 3790 955 3760 955 
3840 965 3850 965 3850 955 3840 955 
3900 965 3930 965 3930 955 3900 955 
4020 965 4170 965 4170 955 4020 955 
4220 965 4270 965 4270 955 4220 955 
4360 965 4510 965 4510 955 4360 955 
4560 965 5030 965 5030 955 4560 955 
5110 965 5310 965 5310 955 5110 955 
5400 965 5420 965 5420 955 5400 955 
5620 965 5850 965 5850 955 5620 955 
5900 965 5940 965 5940 955 5900 955 
6040 965 6230 965 6230 955 6040 955 
6320 965 6440 965 6440 955 6320 955 
6540 965 6630 965 6630 955 6540 955 
6720 965 6840 965 6840 955 6720 955 
6970 965 7030 965 7030 955 6970 955 
7110 965 7170 965 7170 955 7110 955 
7260 965 7920 965 7920 955 7260 955 
0 985 550 985 550 975 0 975 
650 985 1170 985 1170 975 650 975 
1270 985 1810 985 1810 975 1270 975 
1860 985 1930 985 1930 975 1860 975 
1980 985 2530 985 2530 975 1980 975 
2630 985 2990 985 2990 975 2630 975 
3090 985 3490 985 3490 975 3090 975 
3590 985 3950 985 3950 975 3590 975 
4050 985 4290 985 4290 975 4050 975 
4390 985 5330 985 5330 975 4390 975 
5380 985 6250 985 6250 975 5380 975 
6350 985 6650 985 6650 975 6350 975 
6700 985 7190 985 7190 975 6700 975 
7290 985 7920 985 7920 975 7290 975 
0 1005 570 1005 570 995 0 995 
610 1005 1190 1005 1190 995 610 995 
1230 1005 1830 1005 1830 995 1230 995 
1870 1005 1950 1005 1950 995 1870 995 
1990 1005 2550 1005 2550 995 1990 995 
2590 1005 3010 1005 3010 995 2590 995 
3050 1005 3510 1005 3510 995 3050 995 
3550 1005 3970 1005 3970 995 3550 995 
4010 1005 4310 1005 4310 995 4010 995 
4350 1005 5350 1005 5350 995 4350 995 
5390 1005 6270 1005 6270 995 5390 995 
6310 1005 6670 1005 6670 995 6310 995 
6710 1005 7210 1005 7210 995 6710 995 
7250 1005 7920 1005 7920 995 7250 995 
0 1025 190 1025 190 1015 0 1015 
240 1025 350 1025 350 1015 240 1015 
420 1025 520 1025 520 1015 420 1015 
620 1025 1140 1025 1140 1015 620 1015 
1240 1025 1610 1025 1610 1015 1240 1015 
1680 1025 1780 1025 1780 1015 1680 1015 
1880 1025 1900 1025 1900 1015 1880 1015 
2000 1025 2250 1025 2250 1015 2000 1015 
2300 1025 2350 1025 2350 1015 2300 1015 
2440 1025 2500 1025 2500 1015 2440 1015 
2600 1025 2960 1025 2960 1015 2600 1015 
3060 1025 3130 1025 3130 1015 3060 1015 
3180 1025 3270 1025 3270 1015 3180 1015 
3360 1025 3460 1025 3460 1015 3360 1015 
3560 1025 3790 1025 3790 1015 3560 1015 
3860 1025 3920 1025 3920 1015 3860 1015 
4020 1025 4260 1025 4260 1015 4020 1015 
4360 1025 4610 1025 4610 1015 4360 1015 
4660 1025 4770 1025 4770 1015 4660 1015 
4820 1025 4870 1025 4870 1015 4820 1015 
4960 1025 5230 1025 5230 1015 4960 1015 
5280 1025 5300 1025 5300 1015 5280 1015 
5400 1025 5730 1025 5730 1015 5400 1015 
5780 1025 6070 1025 6070 1015 5780 1015 
6120 1025 6220 1025 6220 1015 6120 1015 
6320 1025 6620 1025 6620 1015 6320 1015 
6720 1025 6730 1025 6730 1015 6720 1015 
6820 1025 7160 1025 7160 1015 6820 1015 
7260 1025 7310 1025 7310 1015 7260 1015 
7360 1025 7920 1025 7920 1015 7360 1015 
0 1065 30 1065 30 1055 0 1055 
100 1065 310 1065 310 1055 100 1055 
360 1065 450 1065 450 1055 360 1055 
500 1065 600 1065 600 1055 500 1055 
700 1065 850 1065 850 1055 700 1055 
900 1065 910 1065 910 1055 900 1055 
960 1065 1590 1065 1590 1055 960 1055 
1640 1065 1730 1065 1730 1055 1640 1055 
1780 1065 2010 1065 2010 1055 1780 1055 
2080 1065 2170 1065 2170 1055 2080 1055 
2240 1065 2250 1065 2250 1055 2240 1055 
2340 1065 2450 1065 2450 1055 2340 1055 
2520 1065 2750 1065 2750 1055 2520 1055 
2820 1065 3230 1065 3230 1055 2820 1055 
3320 1065 3450 1065 3450 1055 3320 1055 
3540 1065 3550 1065 3550 1055 3540 1055 
3640 1065 3750 1065 3750 1055 3640 1055 
3800 1065 3820 1065 3820 1055 3800 1055 
3920 1065 4070 1065 4070 1055 3920 1055 
4120 1065 4270 1065 4270 1055 4120 1055 
4320 1065 4410 1065 4410 1055 4320 1055 
4460 1065 4490 1065 4490 1055 4460 1055 
4560 1065 4570 1065 4570 1055 4560 1055 
4660 1065 4930 1065 4930 1055 4660 1055 
5000 1065 5110 1065 5110 1055 5000 1055 
5160 1065 5230 1065 5230 1055 5160 1055 
5280 1065 5670 1065 5670 1055 5280 1055 
5740 1065 6180 1065 6180 1055 5740 1055 
6280 1065 6390 1065 6390 1055 6280 1055 
6440 1065 6470 1065 6470 1055 6440 1055 
6520 1065 6550 1065 6550 1055 6520 1055 
6620 1065 7920 1065 7920 1055 6620 1055 
0 1085 650 1085 650 1075 0 1075 
690 1085 3870 1085 3870 1075 690 1075 
3910 1085 6230 1085 6230 1075 3910 1075 
6270 1085 7920 1085 7920 1075 6270 1075 
0 1105 630 1105 630 1095 0 1095 
680 1105 3850 1105 3850 1095 680 1095 
3950 1105 6210 1105 6210 1095 3950 1095 
6260 1105 7920 1105 7920 1095 6260 1095 
0 1125 50 1125 50 1115 0 1115 
100 1125 160 1125 160 1115 100 1115 
260 1125 610 1125 610 1115 260 1115 
800 1125 1030 1125 1030 1115 800 1115 
1110 1125 1230 1125 1230 1115 1110 1115 
1310 1125 1410 1125 1410 1115 1310 1115 
1490 1125 1810 1125 1810 1115 1490 1115 
1890 1125 2030 1125 2030 1115 1890 1115 
2080 1125 2190 1125 2190 1115 2080 1115 
2240 1125 2470 1125 2470 1115 2240 1115 
2520 1125 2540 1125 2540 1115 2520 1115 
2640 1125 2770 1125 2770 1115 2640 1115 
2820 1125 2870 1125 2870 1115 2820 1115 
2950 1125 3020 1125 3020 1115 2950 1115 
3150 1125 3390 1125 3390 1115 3150 1115 
3440 1125 3830 1125 3830 1115 3440 1115 
3920 1125 4170 1125 4170 1115 3920 1115 
4250 1125 4330 1125 4330 1115 4250 1115 
4380 1125 4510 1125 4510 1115 4380 1115 
4560 1125 4690 1125 4690 1115 4560 1115 
4840 1125 4930 1125 4930 1115 4840 1115 
4980 1125 4990 1125 4990 1115 4980 1115 
5040 1125 5330 1125 5330 1115 5040 1115 
5410 1125 5500 1125 5500 1115 5410 1115 
5630 1125 5690 1125 5690 1115 5630 1115 
5740 1125 5760 1125 5760 1115 5740 1115 
5890 1125 5990 1125 5990 1115 5890 1115 
6070 1125 6190 1125 6190 1115 6070 1115 
6280 1125 6570 1125 6570 1115 6280 1115 
6720 1125 7920 1125 7920 1115 6720 1115 
0 1165 310 1165 310 1155 0 1155 
390 1165 510 1165 510 1155 390 1155 
600 1165 670 1165 670 1155 600 1155 
720 1165 750 1165 750 1155 720 1155 
840 1165 880 1165 880 1155 840 1155 
1010 1165 1090 1165 1090 1155 1010 1155 
1170 1165 1330 1165 1330 1155 1170 1155 
1380 1165 1410 1165 1410 1155 1380 1155 
1460 1165 1470 1165 1470 1155 1460 1155 
1520 1165 1530 1165 1530 1155 1520 1155 
1580 1165 1610 1165 1610 1155 1580 1155 
1660 1165 1690 1165 1690 1155 1660 1155 
1740 1165 1770 1165 1770 1155 1740 1155 
1850 1165 1910 1165 1910 1155 1850 1155 
2090 1165 2170 1165 2170 1155 2090 1155 
2260 1165 2310 1165 2310 1155 2260 1155 
2360 1165 2510 1165 2510 1155 2360 1155 
2560 1165 2590 1165 2590 1155 2560 1155 
2680 1165 2760 1165 2760 1155 2680 1155 
2860 1165 2970 1165 2970 1155 2860 1155 
3020 1165 3110 1165 3110 1155 3020 1155 
3190 1165 3230 1165 3230 1155 3190 1155 
3280 1165 3290 1165 3290 1155 3280 1155 
3340 1165 3470 1165 3470 1155 3340 1155 
3520 1165 3550 1165 3550 1155 3520 1155 
3600 1165 3630 1165 3630 1155 3600 1155 
3680 1165 3750 1165 3750 1155 3680 1155 
3830 1165 3910 1165 3910 1155 3830 1155 
4000 1165 4060 1165 4060 1155 4000 1155 
4160 1165 4170 1165 4170 1155 4160 1155 
4250 1165 4280 1165 4280 1155 4250 1155 
4380 1165 4430 1165 4430 1155 4380 1155 
4480 1165 4490 1165 4490 1155 4480 1155 
4540 1165 4790 1165 4790 1155 4540 1155 
4840 1165 4950 1165 4950 1155 4840 1155 
5030 1165 5110 1165 5110 1155 5030 1155 
5190 1165 5250 1165 5250 1155 5190 1155 
5330 1165 5410 1165 5410 1155 5330 1155 
5460 1165 5610 1165 5610 1155 5460 1155 
5660 1165 5750 1165 5750 1155 5660 1155 
5830 1165 5910 1165 5910 1155 5830 1155 
5960 1165 5970 1165 5970 1155 5960 1155 
6020 1165 6270 1165 6270 1155 6020 1155 
6350 1165 6470 1165 6470 1155 6350 1155 
6520 1165 6570 1165 6570 1155 6520 1155 
6650 1165 6710 1165 6710 1155 6650 1155 
6760 1165 6790 1165 6790 1155 6760 1155 
6840 1165 6950 1165 6950 1155 6840 1155 
7040 1165 7920 1165 7920 1155 7040 1155 
0 1185 1350 1185 1350 1175 0 1175 
1440 1185 1630 1185 1630 1175 1440 1175 
1720 1185 3490 1185 3490 1175 1720 1175 
3580 1185 6730 1185 6730 1175 3580 1175 
6820 1185 7920 1185 7920 1175 6820 1175 
0 1205 530 1205 530 1195 0 1195 
630 1205 770 1205 770 1195 630 1195 
870 1205 1390 1205 1390 1195 870 1195 
1420 1205 1670 1205 1670 1195 1420 1195 
1700 1205 2190 1205 2190 1195 1700 1195 
2240 1205 2610 1205 2610 1195 2240 1195 
2660 1205 3530 1205 3530 1195 2660 1195 
3560 1205 3930 1205 3930 1195 3560 1195 
3980 1205 6770 1205 6770 1195 3980 1195 
6800 1205 6970 1205 6970 1195 6800 1195 
7070 1205 7920 1205 7920 1195 7070 1195 
0 1225 550 1225 550 1215 0 1215 
590 1225 790 1225 790 1215 590 1215 
830 1225 2210 1225 2210 1215 830 1215 
2250 1225 2630 1225 2630 1215 2250 1215 
2670 1225 3950 1225 3950 1215 2670 1215 
3990 1225 6990 1225 6990 1215 3990 1215 
7030 1225 7920 1225 7920 1215 7030 1215 
0 1245 50 1245 50 1235 0 1235 
100 1245 190 1245 190 1235 100 1235 
280 1245 500 1245 500 1235 280 1235 
600 1245 740 1245 740 1235 600 1235 
840 1245 1250 1245 1250 1235 840 1235 
1300 1245 1470 1245 1470 1235 1300 1235 
1540 1245 1890 1245 1890 1235 1540 1235 
1960 1245 2160 1245 2160 1235 1960 1235 
2260 1245 2410 1245 2410 1235 2260 1235 
2500 1245 2580 1245 2580 1235 2500 1235 
2680 1245 2950 1245 2950 1235 2680 1235 
3020 1245 3230 1245 3230 1235 3020 1235 
3300 1245 3390 1245 3390 1235 3300 1235 
3440 1245 3900 1245 3900 1235 3440 1235 
4000 1245 4430 1245 4430 1235 4000 1235 
4500 1245 4610 1245 4610 1235 4500 1235 
4660 1245 4730 1245 4730 1235 4660 1235 
4780 1245 5470 1245 5470 1235 4780 1235 
5560 1245 5910 1245 5910 1235 5560 1235 
5980 1245 6070 1245 6070 1235 5980 1235 
6160 1245 6450 1245 6450 1235 6160 1235 
6520 1245 6940 1245 6940 1235 6520 1235 
7040 1245 7920 1245 7920 1235 7040 1235 
0 1285 410 1285 410 1275 0 1275 
480 1285 580 1285 580 1275 480 1275 
680 1285 1050 1285 1050 1275 680 1275 
1120 1285 1480 1285 1480 1275 1120 1275 
1580 1285 1810 1285 1810 1275 1580 1275 
1900 1285 1940 1285 1940 1275 1900 1275 
2040 1285 2070 1285 2070 1275 2040 1275 
2140 1285 2170 1285 2170 1275 2140 1275 
2240 1285 2750 1285 2750 1275 2240 1275 
2800 1285 2840 1285 2840 1275 2800 1275 
2940 1285 3830 1285 3830 1275 2940 1275 
3900 1285 4210 1285 4210 1275 3900 1275 
4260 1285 4530 1285 4530 1275 4260 1275 
4600 1285 4740 1285 4740 1275 4600 1275 
4840 1285 4920 1285 4920 1275 4840 1275 
5020 1285 5110 1285 5110 1275 5020 1275 
5180 1285 5550 1285 5550 1275 5180 1275 
5600 1285 6950 1285 6950 1275 5600 1275 
7000 1285 7550 1285 7550 1275 7000 1275 
7620 1285 7920 1285 7920 1275 7620 1275 
0 1305 630 1305 630 1295 0 1295 
670 1305 1530 1305 1530 1295 670 1295 
1570 1305 1990 1305 1990 1295 1570 1295 
2030 1305 2890 1305 2890 1295 2030 1295 
2930 1305 4790 1305 4790 1295 2930 1295 
4830 1305 4970 1305 4970 1295 4830 1295 
5010 1305 7920 1305 7920 1295 5010 1295 
0 1325 610 1325 610 1315 0 1315 
660 1325 1510 1325 1510 1315 660 1315 
1610 1325 1970 1325 1970 1315 1610 1315 
2020 1325 2350 1325 2350 1315 2020 1315 
2380 1325 2870 1325 2870 1315 2380 1315 
2920 1325 3150 1325 3150 1315 2920 1315 
3180 1325 4770 1325 4770 1315 3180 1315 
4820 1325 4950 1325 4950 1315 4820 1315 
5000 1325 5810 1325 5810 1315 5000 1315 
5840 1325 7920 1325 7920 1315 5840 1315 
0 1345 2310 1345 2310 1335 0 1335 
2400 1345 3110 1345 3110 1335 2400 1335 
3200 1345 5770 1345 5770 1335 3200 1335 
5860 1345 7920 1345 7920 1335 5860 1335 
100 1365 160 1365 160 1355 100 1355 
290 1365 430 1365 430 1355 290 1355 
480 1365 590 1365 590 1355 480 1355 
680 1365 750 1365 750 1355 680 1355 
830 1365 930 1365 930 1355 830 1355 
980 1365 1050 1365 1050 1355 980 1355 
1100 1365 1110 1365 1110 1355 1100 1355 
1160 1365 1210 1365 1210 1355 1160 1355 
1260 1365 1280 1365 1280 1355 1260 1355 
1380 1365 1490 1365 1490 1355 1380 1355 
1580 1365 1710 1365 1710 1355 1580 1355 
1760 1365 1950 1365 1950 1355 1760 1355 
2040 1365 2090 1365 2090 1355 2040 1355 
2140 1365 2170 1365 2170 1355 2140 1355 
2220 1365 2230 1365 2230 1355 2220 1355 
2280 1365 2290 1365 2290 1355 2280 1355 
2340 1365 2370 1365 2370 1355 2340 1355 
2550 1365 2580 1365 2580 1355 2550 1355 
2710 1365 2850 1365 2850 1355 2710 1355 
2940 1365 3030 1365 3030 1355 2940 1355 
3080 1365 3090 1365 3090 1355 3080 1355 
3140 1365 3170 1365 3170 1355 3140 1355 
3220 1365 3300 1365 3300 1355 3220 1355 
3430 1365 3480 1365 3480 1355 3430 1355 
3610 1365 3700 1365 3700 1355 3610 1355 
3800 1365 3830 1365 3830 1355 3800 1355 
3880 1365 3890 1365 3890 1355 3880 1355 
3940 1365 3980 1365 3980 1355 3940 1355 
4110 1365 4340 1365 4340 1355 4110 1355 
4440 1365 4530 1365 4530 1355 4440 1355 
4580 1365 4590 1365 4590 1355 4580 1355 
4640 1365 4750 1365 4750 1355 4640 1355 
4840 1365 4930 1365 4930 1355 4840 1355 
5020 1365 5110 1365 5110 1355 5020 1355 
5160 1365 5170 1365 5170 1355 5160 1355 
5220 1365 5250 1365 5250 1355 5220 1355 
5330 1365 5360 1365 5360 1355 5330 1355 
5490 1365 5600 1365 5600 1355 5490 1355 
5730 1365 5750 1365 5750 1355 5730 1355 
5800 1365 5830 1365 5830 1355 5800 1355 
5880 1365 5910 1365 5910 1355 5880 1355 
5960 1365 5980 1365 5980 1355 5960 1355 
6110 1365 6140 1365 6140 1355 6110 1355 
6270 1365 6320 1365 6320 1355 6270 1355 
6450 1365 6530 1365 6530 1355 6450 1355 
6610 1365 6680 1365 6680 1355 6610 1355 
6780 1365 6830 1365 6830 1355 6780 1355 
6880 1365 7090 1365 7090 1355 6880 1355 
7170 1365 7230 1365 7230 1355 7170 1355 
7280 1365 7350 1365 7350 1355 7280 1355 
7430 1365 7570 1365 7570 1355 7430 1355 
7620 1365 7920 1365 7920 1355 7620 1355 
0 1405 170 1405 170 1395 0 1395 
250 1405 350 1405 350 1395 250 1395 
430 1405 470 1405 470 1395 430 1395 
560 1405 610 1405 610 1395 560 1395 
690 1405 1090 1405 1090 1395 690 1395 
1140 1405 1230 1405 1230 1395 1140 1395 
1310 1405 1350 1405 1350 1395 1310 1395 
1440 1405 1530 1405 1530 1395 1440 1395 
1580 1405 1870 1405 1870 1395 1580 1395 
1920 1405 2050 1405 2050 1395 1920 1395 
2100 1405 2130 1405 2130 1395 2100 1395 
2180 1405 2190 1405 2190 1395 2180 1395 
2370 1405 2450 1405 2450 1395 2370 1395 
2500 1405 2510 1405 2510 1395 2500 1395 
2560 1405 2670 1405 2670 1395 2560 1395 
2760 1405 2990 1405 2990 1395 2760 1395 
3070 1405 3130 1405 3130 1395 3070 1395 
3210 1405 3250 1405 3250 1395 3210 1395 
3300 1405 3310 1405 3310 1395 3300 1395 
3360 1405 3390 1405 3390 1395 3360 1395 
3470 1405 3500 1405 3500 1395 3470 1395 
3630 1405 3670 1405 3670 1395 3630 1395 
3750 1405 3810 1405 3810 1395 3750 1395 
3860 1405 3890 1405 3890 1395 3860 1395 
3970 1405 4050 1405 4050 1395 3970 1395 
4140 1405 4250 1405 4250 1395 4140 1395 
4300 1405 4330 1405 4330 1395 4300 1395 
4380 1405 4410 1405 4410 1395 4380 1395 
4490 1405 4590 1405 4590 1395 4490 1395 
4640 1405 4690 1405 4690 1395 4640 1395 
4740 1405 4770 1405 4770 1395 4740 1395 
4820 1405 5030 1405 5030 1395 4820 1395 
5110 1405 5430 1405 5430 1395 5110 1395 
5520 1405 5530 1405 5530 1395 5520 1395 
5580 1405 5610 1405 5610 1395 5580 1395 
5660 1405 5730 1405 5730 1395 5660 1395 
5820 1405 5870 1405 5870 1395 5820 1395 
5920 1405 6130 1405 6130 1395 5920 1395 
6180 1405 6270 1405 6270 1395 6180 1395 
6320 1405 6410 1405 6410 1395 6320 1395 
6490 1405 6580 1405 6580 1395 6490 1395 
6710 1405 6880 1405 6880 1395 6710 1395 
7010 1405 7040 1405 7040 1395 7010 1395 
7170 1405 7920 1405 7920 1395 7170 1395 
0 1425 2070 1425 2070 1415 0 1415 
2160 1425 4270 1425 4270 1415 2160 1415 
4360 1425 4710 1425 4710 1415 4360 1415 
4800 1425 5550 1425 5550 1415 4800 1415 
5640 1425 7920 1425 7920 1415 5640 1415 
0 1445 490 1445 490 1435 0 1435 
590 1445 1370 1445 1370 1435 590 1435 
1470 1445 2110 1445 2110 1435 1470 1435 
2140 1445 2690 1445 2690 1435 2140 1435 
2790 1445 4070 1445 4070 1435 2790 1435 
4170 1445 4310 1445 4310 1435 4170 1435 
4340 1445 4750 1445 4750 1435 4340 1435 
4780 1445 5450 1445 5450 1435 4780 1435 
5500 1445 5590 1445 5590 1435 5500 1435 
5620 1445 5750 1445 5750 1435 5620 1435 
5800 1445 7920 1445 7920 1435 5800 1435 
0 1465 510 1465 510 1455 0 1455 
550 1465 1390 1465 1390 1455 550 1455 
1430 1465 2710 1465 2710 1455 1430 1455 
2750 1465 4090 1465 4090 1455 2750 1455 
4130 1465 5470 1465 5470 1455 4130 1455 
5510 1465 5770 1465 5770 1455 5510 1455 
5810 1465 7920 1465 7920 1455 5810 1455 
0 1485 90 1485 90 1475 0 1475 
140 1485 460 1485 460 1475 140 1475 
560 1485 790 1485 790 1475 560 1475 
880 1485 970 1485 970 1475 880 1475 
1020 1485 1070 1485 1070 1475 1020 1475 
1140 1485 1340 1485 1340 1475 1140 1475 
1440 1485 1510 1485 1510 1475 1440 1475 
1580 1485 1630 1485 1630 1475 1580 1475 
1680 1485 1730 1485 1730 1475 1680 1475 
1780 1485 1850 1485 1850 1475 1780 1475 
1920 1485 1930 1485 1930 1475 1920 1475 
1980 1485 2450 1485 2450 1475 1980 1475 
2520 1485 2660 1485 2660 1475 2520 1475 
2760 1485 2870 1485 2870 1475 2760 1475 
2920 1485 3250 1485 3250 1475 2920 1475 
3320 1485 4040 1485 4040 1475 3320 1475 
4140 1485 4890 1485 4890 1475 4140 1475 
4940 1485 5170 1485 5170 1475 4940 1475 
5220 1485 5310 1485 5310 1475 5220 1475 
5360 1485 5420 1485 5420 1475 5360 1475 
5520 1485 5720 1485 5720 1475 5520 1475 
5820 1485 5970 1485 5970 1475 5820 1475 
6060 1485 6790 1485 6790 1475 6060 1475 
6880 1485 7920 1485 7920 1475 6880 1475 
0 1525 250 1525 250 1515 0 1515 
300 1525 370 1525 370 1515 300 1515 
460 1525 480 1525 480 1515 460 1515 
580 1525 940 1525 940 1515 580 1515 
1040 1525 1350 1525 1350 1515 1040 1515 
1420 1525 1790 1525 1790 1515 1420 1515 
1840 1525 1910 1525 1910 1515 1840 1515 
1960 1525 3000 1525 3000 1515 1960 1515 
3100 1525 3470 1525 3470 1515 3100 1515 
3540 1525 3770 1525 3770 1515 3540 1515 
3840 1525 4070 1525 4070 1515 3840 1515 
4160 1525 4400 1525 4400 1515 4160 1515 
4500 1525 4690 1525 4690 1515 4500 1515 
4760 1525 5960 1525 5960 1515 4760 1515 
6060 1525 6210 1525 6210 1515 6060 1515 
6260 1525 6650 1525 6650 1515 6260 1515 
6740 1525 7100 1525 7100 1515 6740 1515 
7200 1525 7330 1525 7330 1515 7200 1515 
7380 1525 7920 1525 7920 1515 7380 1515 
0 1545 530 1545 530 1535 0 1535 
570 1545 990 1545 990 1535 570 1535 
1030 1545 3050 1545 3050 1535 1030 1535 
3090 1545 4450 1545 4450 1535 3090 1535 
4490 1545 6010 1545 6010 1535 4490 1535 
6050 1545 7150 1545 7150 1535 6050 1535 
7190 1545 7920 1545 7920 1535 7190 1535 
0 1565 510 1565 510 1555 0 1555 
610 1565 970 1565 970 1555 610 1555 
1070 1565 2830 1565 2830 1555 1070 1555 
2860 1565 3030 1565 3030 1555 2860 1555 
3080 1565 4430 1565 4430 1555 3080 1555 
4480 1565 5150 1565 5150 1555 4480 1555 
5180 1565 5830 1565 5830 1555 5180 1555 
5860 1565 5990 1565 5990 1555 5860 1555 
6040 1565 6350 1565 6350 1555 6040 1555 
6380 1565 6850 1565 6850 1555 6380 1555 
6880 1565 7130 1565 7130 1555 6880 1555 
7230 1565 7920 1565 7920 1555 7230 1555 
0 1585 2790 1585 2790 1575 0 1575 
2880 1585 5110 1585 5110 1575 2880 1575 
5200 1585 5790 1585 5790 1575 5200 1575 
5880 1585 6310 1585 6310 1575 5880 1575 
6400 1585 6810 1585 6810 1575 6400 1575 
6900 1585 7920 1585 7920 1575 6900 1575 
0 1605 70 1605 70 1595 0 1595 
150 1605 490 1605 490 1595 150 1595 
580 1605 650 1605 650 1595 580 1595 
700 1605 750 1605 750 1595 700 1595 
830 1605 950 1605 950 1595 830 1595 
