1297
-50 -50 4170 3050 
0 25 510 25 510 15 0 15 
560 25 610 25 610 15 560 15 
660 25 690 25 690 15 660 15 
740 25 770 25 770 15 740 15 
820 25 870 25 870 15 820 15 
950 25 1030 25 1030 15 950 15 
1120 25 1210 25 1210 15 1120 15 
1260 25 1350 25 1350 15 1260 15 
1400 25 1470 25 1470 15 1400 15 
1520 25 1750 25 1750 15 1520 15 
1840 25 1900 25 1900 15 1840 15 
2030 25 2110 25 2110 15 2030 15 
2200 25 2310 25 2310 15 2200 15 
2360 25 2370 25 2370 15 2360 15 
2420 25 2450 25 2450 15 2420 15 
2500 25 2570 25 2570 15 2500 15 
2620 25 2710 25 2710 15 2620 15 
2760 25 2790 25 2790 15 2760 15 
2870 25 3020 25 3020 15 2870 15 
3150 25 3210 25 3210 15 3150 15 
3260 25 3270 25 3270 15 3260 15 
3320 25 3460 25 3460 15 3320 15 
3590 25 3930 25 3930 15 3590 15 
4020 25 4110 25 4110 15 4020 15 
4200 25 4290 25 4290 15 4200 15 
4380 25 4550 25 4550 15 4380 15 
4600 25 4670 25 4670 15 4600 15 
4720 25 4750 25 4750 15 4720 15 
4800 25 4890 25 4890 15 4800 15 
4940 25 4970 25 4970 15 4940 15 
5020 25 5250 25 5250 15 5020 15 
5330 25 5470 25 5470 15 5330 15 
5520 25 5590 25 5590 15 5520 15 
5640 25 5680 25 5680 15 5640 15 
5810 25 5910 25 5910 15 5810 15 
5960 25 5990 25 5990 15 5960 15 
6040 25 6070 25 6070 15 6040 15 
6120 25 6130 25 6130 15 6120 15 
6180 25 6370 25 6370 15 6180 15 
6420 25 6430 25 6430 15 6420 15 
6480 25 6530 25 6530 15 6480 15 
6580 25 6710 25 6710 15 6580 15 
6760 25 6790 25 6790 15 6760 15 
6840 25 7110 25 7110 15 6840 15 
7260 25 7310 25 7310 15 7260 15 
7400 25 8220 25 8220 15 7400 15 
0 45 710 45 710 35 0 35 
800 45 4690 45 4690 35 800 35 
4780 45 4910 45 4910 35 4780 35 
5000 45 5930 45 5930 35 5000 35 
6020 45 6730 45 6730 35 6020 35 
6820 45 8220 45 8220 35 6820 35 
0 65 750 65 750 55 0 55 
780 65 1050 65 1050 55 780 55 
1150 65 1770 65 1770 55 1150 55 
1870 65 2130 65 2130 55 1870 55 
2230 65 3950 65 3950 55 2230 55 
4000 65 4130 65 4130 55 4000 55 
4230 65 4310 65 4310 55 4230 55 
4410 65 4730 65 4730 55 4410 55 
4760 65 4950 65 4950 55 4760 55 
4980 65 5970 65 5970 55 4980 55 
6000 65 6770 65 6770 55 6000 55 
6800 65 7330 65 7330 55 6800 55 
7430 65 8220 65 8220 55 7430 55 
0 85 1070 85 1070 75 0 75 
1110 85 1790 85 1790 75 1110 75 
1830 85 2150 85 2150 75 1830 75 
2190 85 3970 85 3970 75 2190 75 
4010 85 4150 85 4150 75 4010 75 
4190 85 4330 85 4330 75 4190 75 
4370 85 7350 85 7350 75 4370 75 
7390 85 8220 85 8220 75 7390 75 
0 105 70 105 70 95 0 95 
160 105 230 105 230 95 160 95 
280 105 350 105 350 95 280 95 
400 105 1020 105 1020 95 400 95 
1120 105 1450 105 1450 95 1120 95 
1520 105 1590 105 1590 95 1520 95 
1640 105 1740 105 1740 95 1640 95 
1840 105 2100 105 2100 95 1840 95 
2200 105 2310 105 2310 95 2200 95 
2380 105 2550 105 2550 95 2380 95 
2620 105 2690 105 2690 95 2620 95 
2760 105 2930 105 2930 95 2760 95 
3020 105 3210 105 3210 95 3020 95 
3280 105 3350 105 3350 95 3280 95 
3440 105 3630 105 3630 95 3440 95 
3720 105 3830 105 3830 95 3720 95 
3880 105 3920 105 3920 95 3880 95 
4020 105 4100 105 4100 95 4020 95 
4200 105 4280 105 4280 95 4200 95 
4380 105 4450 105 4450 95 4380 95 
4500 105 5110 105 5110 95 4500 95 
5200 105 5450 105 5450 95 5200 95 
5520 105 6070 105 6070 95 5520 95 
6140 105 6250 105 6250 95 6140 95 
6300 105 6370 105 6370 95 6300 95 
6440 105 6610 105 6610 95 6440 95 
6660 105 6930 105 6930 95 6660 95 
7020 105 7300 105 7300 95 7020 95 
7400 105 8220 105 8220 95 7400 95 
0 145 300 145 300 135 0 135 
400 145 790 145 790 135 400 135 
840 145 930 145 930 135 840 135 
1000 145 1230 145 1230 135 1000 135 
1320 145 1390 145 1390 135 1320 135 
1480 145 1590 145 1590 135 1480 135 
1640 145 1830 145 1830 135 1640 135 
1920 145 2190 145 2190 135 1920 135 
2280 145 2350 145 2350 135 2280 135 
2400 145 2470 145 2470 135 2400 135 
2520 145 2530 145 2530 135 2520 135 
2620 145 2730 145 2730 135 2620 135 
2800 145 3090 145 3090 135 2800 135 
3180 145 3230 145 3230 135 3180 135 
3280 145 3670 145 3670 135 3280 135 
3740 145 4210 145 4210 135 3740 135 
4300 145 4420 145 4420 135 4300 135 
4520 145 4530 145 4530 135 4520 135 
4580 145 4670 145 4670 135 4580 135 
4720 145 4850 145 4850 135 4720 135 
4940 145 5130 145 5130 135 4940 135 
5220 145 5270 145 5270 135 5220 135 
5360 145 5860 145 5860 135 5360 135 
5960 145 6180 145 6180 135 5960 135 
6280 145 6360 145 6360 135 6280 135 
6460 145 6610 145 6610 135 6460 135 
6660 145 6910 145 6910 135 6660 135 
6980 145 7160 145 7160 135 6980 135 
7260 145 8220 145 8220 135 7260 135 
0 165 350 165 350 155 0 155 
390 165 4470 165 4470 155 390 155 
4510 165 5910 165 5910 155 4510 155 
5950 165 6230 165 6230 155 5950 155 
6270 165 6410 165 6410 155 6270 155 
6450 165 7210 165 7210 155 6450 155 
7250 165 8220 165 8220 155 7250 155 
0 185 330 185 330 175 0 175 
430 185 4450 185 4450 175 430 175 
4500 185 5890 185 5890 175 4500 175 
5990 185 6210 185 6210 175 5990 175 
6260 185 6390 185 6390 175 6260 175 
6440 185 7070 185 7070 175 6440 175 
7100 185 7190 185 7190 175 7100 175 
7290 185 8220 185 8220 175 7290 175 
0 205 7030 205 7030 195 0 195 
7120 205 8220 205 8220 195 7120 195 
0 225 80 225 80 215 0 215 
210 225 310 225 310 215 210 215 
400 225 460 225 460 215 400 215 
590 225 650 225 650 215 590 215 
700 225 930 225 930 215 700 215 
980 225 990 225 990 215 980 215 
1040 225 1130 225 1130 215 1040 215 
1180 225 1750 225 1750 215 1180 215 
1800 225 2000 225 2000 215 1800 215 
2100 225 2670 225 2670 215 2100 215 
2720 225 2730 225 2730 215 2720 215 
2780 225 2790 225 2790 215 2780 215 
2840 225 2930 225 2930 215 2840 215 
3010 225 3310 225 3310 215 3010 215 
3390 225 3510 225 3510 215 3390 215 
3560 225 3690 225 3690 215 3560 215 
3740 225 3820 225 3820 215 3740 215 
3950 225 4030 225 4030 215 3950 215 
4110 225 4330 225 4330 215 4110 215 
4380 225 4430 225 4430 215 4380 215 
4520 225 4790 225 4790 215 4520 215 
4840 225 5030 225 5030 215 4840 215 
5110 225 5420 225 5420 215 5110 215 
5520 225 5550 225 5550 215 5520 215 
5600 225 5710 225 5710 215 5600 215 
5790 225 5870 225 5870 215 5790 215 
5960 225 6030 225 6030 215 5960 215 
6080 225 6190 225 6190 215 6080 215 
6280 225 6370 225 6370 215 6280 215 
6460 225 6480 225 6480 215 6460 215 
6580 225 6710 225 6710 215 6580 215 
6790 225 6930 225 6930 215 6790 215 
6980 225 7010 225 7010 215 6980 215 
7060 225 7090 225 7090 215 7060 215 
7140 225 7170 225 7170 215 7140 215 
7260 225 8220 225 8220 215 7260 215 
0 265 10 265 10 255 0 255 
60 265 70 265 70 255 60 255 
120 265 270 265 270 255 120 255 
350 265 400 265 400 255 350 255 
500 265 590 265 590 255 500 255 
680 265 770 265 770 255 680 255 
820 265 830 265 830 255 820 255 
880 265 920 265 920 255 880 255 
1050 265 1060 265 1060 255 1050 255 
1190 265 1250 265 1250 255 1190 255 
1330 265 1430 265 1430 255 1330 255 
1480 265 1590 265 1590 255 1480 255 
1680 265 1770 265 1770 255 1680 255 
1860 265 1950 265 1950 255 1860 255 
2040 265 2130 265 2130 255 2040 255 
2180 265 2210 265 2210 255 2180 255 
2260 265 2310 265 2310 255 2260 255 
2360 265 2390 265 2390 255 2360 255 
2440 265 2550 265 2550 255 2440 255 
2600 265 2690 265 2690 255 2600 255 
2770 265 2800 265 2800 255 2770 255 
2900 265 2970 265 2970 255 2900 255 
3020 265 3050 265 3050 255 3020 255 
3100 265 3170 265 3170 255 3100 255 
3220 265 3250 265 3250 255 3220 255 
3300 265 3370 265 3370 255 3300 255 
3450 265 3510 265 3510 255 3450 255 
3600 265 3650 265 3650 255 3600 255 
3700 265 3730 265 3730 255 3700 255 
3780 265 3900 265 3900 255 3780 255 
4030 265 4150 265 4150 255 4030 255 
4240 265 4300 265 4300 255 4240 255 
4430 265 4630 265 4630 255 4430 255 
4680 265 4710 265 4710 255 4680 255 
4760 265 4790 265 4790 255 4760 255 
4840 265 4890 265 4890 255 4840 255 
4940 265 5030 265 5030 255 4940 255 
5080 265 5090 265 5090 255 5080 255 
5140 265 5150 265 5150 255 5140 255 
5200 265 5310 265 5310 255 5200 255 
5390 265 5430 265 5430 255 5390 255 
5480 265 5510 265 5510 255 5480 255 
5560 265 5840 265 5840 255 5560 255 
5970 265 6270 265 6270 255 5970 255 
6320 265 6430 265 6430 255 6320 255 
6480 265 6570 265 6570 255 6480 255 
6650 265 6660 265 6660 255 6650 255 
6790 265 6910 265 6910 255 6790 255 
7000 265 7100 265 7100 255 7000 255 
7200 265 7210 265 7210 255 7200 255 
7260 265 7330 265 7330 255 7260 255 
7380 265 7410 265 7410 255 7380 255 
7500 265 8220 265 8220 255 7500 255 
0 285 2150 285 2150 275 0 275 
2240 285 2330 285 2330 275 2240 275 
2420 285 2990 285 2990 275 2420 275 
3080 285 3190 285 3190 275 3080 275 
3280 285 3670 285 3670 275 3280 275 
3760 285 4730 285 4730 275 3760 275 
4820 285 5450 285 5450 275 4820 275 
5540 285 8220 285 8220 275 5540 275 
0 305 610 305 610 295 0 295 
710 305 1610 305 1610 295 710 295 
1710 305 1790 305 1790 295 1710 295 
1840 305 1970 305 1970 295 1840 295 
2070 305 2190 305 2190 295 2070 295 
2220 305 2370 305 2370 295 2220 295 
2400 305 3030 305 3030 295 2400 295 
3060 305 3230 305 3230 295 3060 295 
3260 305 3530 305 3530 295 3260 295 
3630 305 3710 305 3710 295 3630 295 
3740 305 4170 305 4170 295 3740 295 
4220 305 4770 305 4770 295 4220 295 
4800 305 5490 305 5490 295 4800 295 
5520 305 6930 305 6930 295 5520 295 
7030 305 7430 305 7430 295 7030 295 
7530 305 8220 305 8220 295 7530 295 
0 325 630 325 630 315 0 315 
670 325 1630 325 1630 315 670 315 
1670 325 1810 325 1810 315 1670 315 
1850 325 1990 325 1990 315 1850 315 
2030 325 3550 325 3550 315 2030 315 
3590 325 4190 325 4190 315 3590 315 
4230 325 6950 325 6950 315 4230 315 
6990 325 7450 325 7450 315 6990 315 
7490 325 8220 325 8220 315 7490 315 
0 345 10 345 10 335 0 335 
80 345 150 345 150 335 80 335 
200 345 580 345 580 335 200 335 
680 345 770 345 770 335 680 335 
840 345 1410 345 1410 335 840 335 
1480 345 1580 345 1580 335 1480 335 
1680 345 1760 345 1760 335 1680 335 
1860 345 1940 345 1940 335 1860 335 
2040 345 3500 345 3500 335 2040 335 
3600 345 3850 345 3850 335 3600 335 
3900 345 4140 345 4140 335 3900 335 
4240 345 4510 345 4510 335 4240 335 
4560 345 4870 345 4870 335 4560 335 
4940 345 5030 345 5030 335 4940 335 
5100 345 5630 345 5630 335 5100 335 
5680 345 5750 345 5750 335 5680 335 
5840 345 5990 345 5990 335 5840 335 
6080 345 6110 345 6110 335 6080 335 
6160 345 6250 345 6250 335 6160 335 
6320 345 6410 345 6410 335 6320 335 
6480 345 6900 345 6900 335 6480 335 
7000 345 7310 345 7310 335 7000 335 
7380 345 7400 345 7400 335 7380 335 
7500 345 7650 345 7650 335 7500 335 
7700 345 8220 345 8220 335 7700 335 
0 385 90 385 90 375 0 375 
160 385 230 385 230 375 160 375 
300 385 610 385 610 375 300 375 
680 385 1050 385 1050 375 680 375 
1140 385 1170 385 1170 375 1140 375 
1240 385 1530 385 1530 375 1240 375 
1600 385 2140 385 2140 375 1600 375 
2240 385 2490 385 2490 375 2240 375 
2540 385 2770 385 2770 375 2540 375 
2820 385 2850 385 2850 375 2820 375 
2920 385 3350 385 3350 375 2920 375 
3420 385 3490 385 3490 375 3420 375 
3540 385 3650 385 3650 375 3540 375 
3720 385 3730 385 3730 375 3720 375 
3780 385 4330 385 4330 375 3780 375 
4400 385 4530 385 4530 375 4400 375 
4580 385 4980 385 4980 375 4580 375 
5080 385 5160 385 5160 375 5080 375 
5260 385 5950 385 5950 375 5260 375 
6020 385 6150 385 6150 375 6020 375 
6240 385 6380 385 6380 375 6240 375 
6480 385 6680 385 6680 375 6480 375 
6780 385 7110 385 7110 375 6780 375 
7180 385 8220 385 8220 375 7180 375 
0 405 2190 405 2190 395 0 395 
2230 405 5030 405 5030 395 2230 395 
5070 405 5210 405 5210 395 5070 395 
5250 405 6430 405 6430 395 5250 395 
6470 405 6730 405 6730 395 6470 395 
6770 405 8220 405 8220 395 6770 395 
0 425 1850 425 1850 415 0 415 
1880 425 2170 425 2170 415 1880 415 
2270 425 2650 425 2650 415 2270 415 
2680 425 4730 425 4730 415 2680 415 
4760 425 5010 425 5010 415 4760 415 
5060 425 5190 425 5190 415 5060 415 
5290 425 6410 425 6410 415 5290 415 
6460 425 6710 425 6710 415 6460 415 
6760 425 8220 425 8220 415 6760 415 
0 445 1810 445 1810 435 0 435 
1900 445 2610 445 2610 435 1900 435 
2700 445 4690 445 4690 435 2700 435 
4780 445 8220 445 8220 435 4780 435 
0 465 110 465 110 455 0 455 
160 465 230 465 230 455 160 455 
280 465 290 465 290 455 280 455 
340 465 350 465 350 455 340 455 
430 465 490 465 490 455 430 455 
540 465 630 465 630 455 540 455 
680 465 790 465 790 455 680 455 
870 465 950 465 950 455 870 455 
1030 465 1170 465 1170 455 1030 455 
1220 465 1230 465 1230 455 1220 455 
1280 465 1390 465 1390 455 1280 455 
1440 465 1550 465 1550 455 1440 455 
1600 465 1670 465 1670 455 1600 455 
1720 465 1790 465 1790 455 1720 455 
1840 465 1870 465 1870 455 1840 455 
1920 465 2030 465 2030 455 1920 455 
2110 465 2150 465 2150 455 2110 455 
2240 465 2370 465 2370 455 2240 455 
2420 465 2590 465 2590 455 2420 455 
2640 465 2670 465 2670 455 2640 455 
2720 465 2850 465 2850 455 2720 455 
2900 465 2910 465 2910 455 2900 455 
2960 465 2990 465 2990 455 2960 455 
3070 465 3140 465 3140 455 3070 455 
3240 465 3370 465 3370 455 3240 455 
3420 465 3670 465 3670 455 3420 455 
3720 465 3840 465 3840 455 3720 455 
3970 465 4030 465 4030 455 3970 455 
4080 465 4190 465 4190 455 4080 455 
4270 465 4330 465 4330 455 4270 455 
4380 465 4390 465 4390 455 4380 455 
4440 465 4670 465 4670 455 4440 455 
4720 465 4750 465 4750 455 4720 455 
4800 465 4910 465 4910 455 4800 455 
4960 465 4990 465 4990 455 4960 455 
5080 465 5170 465 5170 455 5080 455 
5260 465 5390 465 5390 455 5260 455 
5470 465 5570 465 5570 455 5470 455 
5620 465 5640 465 5640 455 5620 455 
5770 465 5820 465 5820 455 5770 455 
5920 465 5950 465 5950 455 5920 455 
6000 465 6010 465 6010 455 6000 455 
6060 465 6240 465 6240 455 6060 455 
6340 465 6390 465 6390 455 6340 455 
6480 465 6570 465 6570 455 6480 455 
6620 465 6690 465 6690 455 6620 455 
6780 465 6800 465 6800 455 6780 455 
6930 465 7010 465 7010 455 6930 455 
7060 465 7110 465 7110 455 7060 455 
7160 465 7170 465 7170 455 7160 455 
7320 465 7340 465 7340 455 7320 455 
7470 465 8220 465 8220 455 7470 455 
0 505 230 505 230 495 0 495 
280 505 390 505 390 495 280 495 
480 505 870 505 870 495 480 495 
960 505 1390 505 1390 495 960 495 
1440 505 1650 505 1650 495 1440 495 
1730 505 1830 505 1830 495 1730 495 
1880 505 1970 505 1970 495 1880 495 
2020 505 2070 505 2070 495 2020 495 
2160 505 2230 505 2230 495 2160 495 
2310 505 2350 505 2350 495 2310 495 
2440 505 2530 505 2530 495 2440 495 
2580 505 2610 505 2610 495 2580 495 
2660 505 2670 505 2670 495 2660 495 
2720 505 2870 505 2870 495 2720 495 
2960 505 3160 505 3160 495 2960 495 
3260 505 3310 505 3310 495 3260 495 
3360 505 3450 505 3450 495 3360 495 
3500 505 3530 505 3530 495 3500 495 
3580 505 3690 505 3690 495 3580 495 
3740 505 3830 505 3830 495 3740 495 
3880 505 3910 505 3910 495 3880 495 
3960 505 4050 505 4050 495 3960 495 
4100 505 4210 505 4210 495 4100 495 
4260 505 4310 505 4310 495 4260 495 
4390 505 4450 505 4450 495 4390 495 
4500 505 4510 505 4510 495 4500 495 
4560 505 4670 505 4670 495 4560 495 
4720 505 4810 505 4810 495 4720 495 
4900 505 5100 505 5100 495 4900 495 
5200 505 5310 505 5310 495 5200 495 
5400 505 5410 505 5410 495 5400 495 
5460 505 5590 505 5590 495 5460 495 
5640 505 5670 505 5670 495 5640 495 
5720 505 5730 505 5730 495 5720 495 
5780 505 5790 505 5790 495 5780 495 
5870 505 5970 505 5970 495 5870 495 
6020 505 6070 505 6070 495 6020 495 
6120 505 6190 505 6190 495 6120 495 
6240 505 6310 505 6310 495 6240 495 
6400 505 6490 505 6490 495 6400 495 
6540 505 6590 505 6590 495 6540 495 
6680 505 6710 505 6710 495 6680 495 
6760 505 6850 505 6850 495 6760 495 
6930 505 7010 505 7010 495 6930 495 
7060 505 7090 505 7090 495 7060 495 
7140 505 7370 505 7370 495 7140 495 
7460 505 8220 505 8220 495 7460 495 
0 525 3470 525 3470 515 0 515 
3560 525 3850 525 3850 515 3560 515 
3940 525 7030 525 7030 515 3940 515 
7120 525 8220 525 8220 515 7120 515 
0 545 410 545 410 535 0 535 
460 545 890 545 890 535 460 535 
990 545 2090 545 2090 535 990 535 
2140 545 2370 545 2370 535 2140 535 
2420 545 2890 545 2890 535 2420 535 
2990 545 3510 545 3510 535 2990 535 
3540 545 3890 545 3890 535 3540 535 
3920 545 4830 545 4830 535 3920 535 
4930 545 5330 545 5330 535 4930 535 
5380 545 6330 545 6330 535 5380 535 
6430 545 6610 545 6610 535 6430 535 
6660 545 7070 545 7070 535 6660 535 
7100 545 7390 545 7390 535 7100 535 
7490 545 8220 545 8220 535 7490 535 
0 565 430 565 430 555 0 555 
470 565 910 565 910 555 470 555 
950 565 2110 565 2110 555 950 555 
2150 565 2390 565 2390 555 2150 555 
2430 565 2910 565 2910 555 2430 555 
2950 565 4850 565 4850 555 2950 555 
4890 565 5350 565 5350 555 4890 555 
5390 565 6350 565 6350 555 5390 555 
6390 565 6630 565 6630 555 6390 555 
6670 565 7410 565 7410 555 6670 555 
7450 565 8220 565 8220 555 7450 555 
0 585 90 585 90 575 0 575 
180 585 380 585 380 575 180 575 
480 585 550 585 550 575 480 575 
600 585 670 585 670 575 600 575 
760 585 860 585 860 575 760 575 
960 585 1030 585 1030 575 960 575 
1080 585 1170 585 1170 575 1080 575 
1260 585 1370 585 1370 575 1260 575 
1440 585 1530 585 1530 575 1440 575 
1580 585 1810 585 1810 575 1580 575 
1880 585 2060 585 2060 575 1880 575 
2160 585 2340 585 2340 575 2160 575 
2440 585 2610 585 2610 575 2440 575 
2680 585 2730 585 2730 575 2680 575 
2820 585 2860 585 2860 575 2820 575 
2960 585 3070 585 3070 575 2960 575 
3120 585 3670 585 3670 575 3120 575 
3740 585 4030 585 4030 575 3740 575 
4100 585 4190 585 4190 575 4100 575 
4260 585 4450 585 4450 575 4260 575 
4520 585 4650 585 4650 575 4520 575 
4720 585 4800 585 4800 575 4720 575 
4900 585 5010 585 5010 575 4900 575 
5060 585 5300 585 5300 575 5060 575 
5400 585 5570 585 5570 575 5400 575 
5640 585 5670 585 5670 575 5640 575 
5740 585 6050 585 6050 575 5740 575 
6120 585 6170 585 6170 575 6120 575 
6240 585 6300 585 6300 575 6240 575 
6400 585 6470 585 6470 575 6400 575 
6540 585 6580 585 6580 575 6540 575 
6680 585 7170 585 7170 575 6680 575 
7260 585 7360 585 7360 575 7260 575 
7460 585 8220 585 8220 575 7460 575 
0 625 440 625 440 615 0 615 
540 625 640 625 640 615 540 615 
740 625 1470 625 1470 615 740 615 
1520 625 1810 625 1810 615 1520 615 
1860 625 2030 625 2030 615 1860 615 
2080 625 2100 625 2100 615 2080 615 
2200 625 2270 625 2270 615 2200 615 
2360 625 2620 625 2620 615 2360 615 
2720 625 2810 625 2810 615 2720 615 
2880 625 2950 625 2950 615 2880 615 
3000 625 3090 625 3090 615 3000 615 
3160 625 3290 625 3290 615 3160 615 
3380 625 3690 625 3690 615 3380 615 
3760 625 3920 625 3920 615 3760 615 
4020 625 4210 625 4210 615 4020 615 
4280 625 4670 625 4670 615 4280 615 
4720 625 5090 625 5090 615 4720 615 
5180 625 5210 625 5210 615 5180 615 
5280 625 5520 625 5520 615 5280 615 
5620 625 5630 625 5630 615 5620 615 
5720 625 5740 625 5740 615 5720 615 
5840 625 6430 625 6430 615 5840 615 
6480 625 6670 625 6670 615 6480 615 
6740 625 6890 625 6890 615 6740 615 
6940 625 6980 625 6980 615 6940 615 
7080 625 8220 625 8220 615 7080 615 
0 645 490 645 490 635 0 635 
530 645 690 645 690 635 530 635 
730 645 2150 645 2150 635 730 635 
2190 645 2670 645 2670 635 2190 635 
2710 645 3970 645 3970 635 2710 635 
4010 645 5570 645 5570 635 4010 635 
5610 645 5790 645 5790 635 5610 635 
5830 645 7030 645 7030 635 5830 635 
7070 645 8220 645 8220 635 7070 635 
0 665 470 665 470 655 0 655 
520 665 670 665 670 655 520 655 
770 665 970 665 970 655 770 655 
1000 665 1930 665 1930 655 1000 655 
1960 665 2130 665 2130 655 1960 655 
2230 665 2650 665 2650 655 2230 655 
2750 665 3950 665 3950 655 2750 655 
4000 665 5550 665 5550 655 4000 655 
5600 665 5770 665 5770 655 5600 655 
5870 665 7010 665 7010 655 5870 655 
7060 665 7270 665 7270 655 7060 655 
7300 665 8220 665 8220 655 7300 655 
0 685 930 685 930 675 0 675 
1020 685 1890 685 1890 675 1020 675 
1980 685 7230 685 7230 675 1980 675 
7320 685 8220 685 8220 675 7320 675 
0 705 70 705 70 695 0 695 
150 705 210 705 210 695 150 695 
260 705 300 705 300 695 260 695 
400 705 450 705 450 695 400 695 
540 705 650 705 650 695 540 695 
740 705 850 705 850 695 740 695 
900 705 910 705 910 695 900 695 
960 705 990 705 990 695 960 695 
1040 705 1130 705 1130 695 1040 695 
1210 705 1250 705 1250 695 1210 695 
1300 705 1350 705 1350 695 1300 695 
1430 705 1560 705 1560 695 1430 695 
1690 705 1870 705 1870 695 1690 695 
1920 705 1950 705 1950 695 1920 695 
2000 705 2110 705 2110 695 2000 695 
2200 705 2450 705 2450 695 2200 695 
2530 705 2630 705 2630 695 2530 695 
2720 705 2830 705 2830 695 2720 695 
2880 705 3090 705 3090 695 2880 695 
3140 705 3150 705 3150 695 3140 695 
3200 705 3490 705 3490 695 3200 695 
3570 705 3710 705 3710 695 3570 695 
3760 705 3830 705 3830 695 3760 695 
3880 705 3930 705 3930 695 3880 695 
4020 705 4110 705 4110 695 4020 695 
4160 705 4230 705 4230 695 4160 695 
4280 705 4370 705 4370 695 4280 695 
4450 705 4460 705 4460 695 4450 695 
4590 705 4800 705 4800 695 4590 695 
4900 705 4950 705 4950 695 4900 695 
5000 705 5230 705 5230 695 5000 695 
5280 705 5370 705 5370 695 5280 695 
5420 705 5530 705 5530 695 5420 695 
5620 705 5750 705 5750 695 5620 695 
5840 705 5910 705 5910 695 5840 695 
5990 705 6070 705 6070 695 5990 695 
6150 705 6250 705 6250 695 6150 695 
6330 705 6510 705 6510 695 6330 695 
6590 705 6670 705 6670 695 6590 695 
6720 705 6730 705 6730 695 6720 695 
6780 705 6990 705 6990 695 6780 695 
7080 705 7110 705 7110 695 7080 695 
7160 705 7210 705 7210 695 7160 695 
7260 705 7290 705 7290 695 7260 695 
7340 705 8220 705 8220 695 7340 695 
0 745 10 745 10 735 0 735 
60 745 90 745 90 735 60 735 
140 745 190 745 190 735 140 735 
240 745 270 745 270 735 240 735 
350 745 430 745 430 735 350 735 
480 745 630 745 630 735 480 735 
680 745 750 745 750 735 680 735 
840 745 990 745 990 735 840 735 
1040 745 1090 745 1090 735 1040 735 
1140 745 1210 745 1210 735 1140 735 
1300 745 1450 745 1450 735 1300 735 
1500 745 1530 745 1530 735 1500 735 
1580 745 1670 745 1670 735 1580 735 
1760 745 1800 745 1800 735 1760 735 
1900 745 2060 745 2060 735 1900 735 
2190 745 2250 745 2250 735 2190 735 
2300 745 2310 745 2310 735 2300 735 
2360 745 2610 745 2610 735 2360 735 
2660 745 2730 745 2730 735 2660 735 
2780 745 2830 745 2830 735 2780 735 
2910 745 2950 745 2950 735 2910 735 
3040 745 3050 745 3050 735 3040 735 
3100 745 3110 745 3110 735 3100 735 
3160 745 3250 745 3250 735 3160 735 
3300 745 3310 745 3310 735 3300 735 
3360 745 3370 745 3370 735 3360 735 
3450 745 3590 745 3590 735 3450 735 
3640 745 3710 745 3710 735 3640 735 
3760 745 3780 745 3780 735 3760 735 
3880 745 3890 745 3890 735 3880 735 
3940 745 3950 745 3950 735 3940 735 
4000 745 4190 745 4190 735 4000 735 
4240 745 4250 745 4250 735 4240 735 
4300 745 4440 745 4440 735 4300 735 
4570 745 4690 745 4690 735 4570 735 
4780 745 4990 745 4990 735 4780 735 
5040 745 5070 745 5070 735 5040 735 
5120 745 5150 745 5150 735 5120 735 
5200 745 5240 745 5240 735 5200 735 
5340 745 5390 745 5390 735 5340 735 
5470 745 5510 745 5510 735 5470 735 
5560 745 5620 745 5620 735 5560 735 
5720 745 5800 745 5800 735 5720 735 
5900 745 6240 745 6240 735 5900 735 
6370 745 6470 745 6470 735 6370 735 
6550 745 6590 745 6590 735 6550 735 
6640 745 6650 745 6650 735 6640 735 
6700 745 8220 745 8220 735 6700 735 
0 765 30 765 30 755 0 755 
120 765 1470 765 1470 755 120 755 
1560 765 5090 765 5090 755 1560 755 
5180 765 8220 765 8220 755 5180 755 
0 785 70 785 70 775 0 775 
100 785 770 785 770 775 100 775 
870 785 1230 785 1230 775 870 775 
1280 785 1510 785 1510 775 1280 775 
1540 785 1690 785 1690 775 1540 775 
1740 785 2970 785 2970 775 1740 775 
3020 785 4710 785 4710 775 3020 775 
4760 785 5130 785 5130 775 4760 775 
5160 785 8220 785 8220 775 5160 775 
0 805 790 805 790 795 0 795 
830 805 1250 805 1250 795 830 795 
1290 805 1710 805 1710 795 1290 795 
1750 805 2990 805 2990 795 1750 795 
3030 805 4730 805 4730 795 3030 795 
4770 805 8220 805 8220 795 4770 795 
0 825 490 825 490 815 0 815 
580 825 740 825 740 815 580 815 
840 825 1200 825 1200 815 840 815 
1300 825 1370 825 1370 815 1300 815 
1420 825 1660 825 1660 815 1420 815 
1760 825 1950 825 1950 815 1760 815 
2000 825 2010 825 2010 815 2000 815 
2060 825 2250 825 2250 815 2060 815 
2320 825 2470 825 2470 815 2320 815 
2520 825 2590 825 2590 815 2520 815 
2660 825 2710 825 2710 815 2660 815 
2780 825 2940 825 2940 815 2780 815 
3040 825 3050 825 3050 815 3040 815 
3120 825 3250 825 3250 815 3120 815 
3320 825 3470 825 3470 815 3320 815 
3560 825 3690 825 3690 815 3560 815 
3760 825 3890 825 3890 815 3760 815 
3960 825 4050 825 4050 815 3960 815 
4100 825 4190 825 4190 815 4100 815 
4260 825 4350 825 4350 815 4260 815 
4400 825 4680 825 4680 815 4400 815 
4780 825 4870 825 4870 815 4780 815 
4920 825 5950 825 5950 815 4920 815 
6000 825 6090 825 6090 815 6000 815 
6180 825 6590 825 6590 815 6180 815 
6660 825 6770 825 6770 815 6660 815 
6820 825 8220 825 8220 815 6820 815 
0 865 50 865 50 855 0 855 
100 865 200 865 200 855 100 855 
300 865 780 865 780 855 300 855 
880 865 950 865 950 855 880 855 
1020 865 1070 865 1070 855 1020 855 
1160 865 1210 865 1210 855 1160 855 
1300 865 1350 865 1350 855 1300 855 
1400 865 1530 865 1530 855 1400 855 
1620 865 1690 865 1690 855 1620 855 
1760 865 1930 865 1930 855 1760 855 
2000 865 2570 865 2570 855 2000 855 
2620 865 2630 865 2630 855 2620 855 
2680 865 2870 865 2870 855 2680 855 
2920 865 3100 865 3100 855 2920 855 
3200 865 3420 865 3420 855 3200 855 
3520 865 3720 865 3720 855 3520 855 
3820 865 4170 865 4170 855 3820 855 
4240 865 4330 865 4330 855 4240 855 
4380 865 4410 865 4410 855 4380 855 
4480 865 4850 865 4850 855 4480 855 
4900 865 5550 865 5550 855 4900 855 
5620 865 5750 865 5750 855 5620 855 
5820 865 6330 865 6330 855 5820 855 
6380 865 6420 865 6420 855 6380 855 
6520 865 6910 865 6910 855 6520 855 
6980 865 8220 865 8220 855 6980 855 
0 885 250 885 250 875 0 875 
290 885 830 885 830 875 290 875 
870 885 3150 885 3150 875 870 875 
3190 885 3470 885 3470 875 3190 875 
3510 885 3770 885 3770 875 3510 875 
3810 885 6470 885 6470 875 3810 875 
6510 885 8220 885 8220 875 6510 875 
0 905 230 905 230 895 0 895 
330 905 690 905 690 895 330 895 
720 905 810 905 810 895 720 895 
910 905 3130 905 3130 895 910 895 
3230 905 3330 905 3330 895 3230 895 
3360 905 3450 905 3450 895 3360 895 
3500 905 3750 905 3750 895 3500 895 
3850 905 6450 905 6450 895 3850 895 
6500 905 8220 905 8220 895 6500 895 
0 925 650 925 650 915 0 915 
740 925 3290 925 3290 915 740 915 
3380 925 8220 925 8220 915 3380 915 
0 945 210 945 210 935 0 935 
300 945 420 945 420 935 300 935 
550 945 630 945 630 935 550 935 
680 945 710 945 710 935 680 935 
760 945 790 945 790 935 760 935 
880 945 970 945 970 935 880 935 
1020 945 1410 945 1410 935 1020 935 
1460 945 1710 945 1710 935 1460 935 
1760 945 1800 945 1800 935 1760 935 
1900 945 1950 945 1950 935 1900 935 
2130 945 2140 945 2140 935 2130 935 
2240 945 2310 945 2310 935 2240 935 
2390 945 2400 945 2400 935 2390 935 
2530 945 2770 945 2770 935 2530 935 
2820 945 2970 945 2970 935 2820 935 
3050 945 3110 945 3110 935 3050 935 
3200 945 3270 945 3270 935 3200 935 
3320 945 3350 945 3350 935 3320 935 
3400 945 3430 945 3430 935 3400 935 
3520 945 3590 945 3590 935 3520 935 
3640 945 3730 945 3730 935 3640 935 
3820 945 3930 945 3930 935 3820 935 
4080 945 4190 945 4190 935 4080 935 
4240 945 4410 945 4410 935 4240 935 
4460 945 4470 945 4470 935 4460 935 
4520 945 4610 945 4610 935 4520 935 
4690 945 4750 945 4750 935 4690 935 
4800 945 4920 945 4920 935 4800 935 
5050 945 5060 945 5060 935 5050 935 
5190 945 5270 945 5270 935 5190 935 
5320 945 5360 945 5360 935 5320 935 
5460 945 5550 945 5550 935 5460 935 
5600 945 5610 945 5610 935 5600 935 
5660 945 5770 945 5770 935 5660 935 
5820 945 5880 945 5880 935 5820 935 
6010 945 6110 945 6110 935 6010 935 
6190 945 6230 945 6230 935 6190 935 
6280 945 6430 945 6430 935 6280 935 
6520 945 6540 945 6540 935 6520 935 
6670 945 6770 945 6770 935 6670 935 
6850 945 6910 945 6910 935 6850 935 
6960 945 6970 945 6970 935 6960 935 
7020 945 8220 945 8220 935 7020 935 
0 985 50 985 50 975 0 975 
100 985 130 985 130 975 100 975 
180 985 210 985 210 975 180 975 
260 985 390 985 390 975 260 975 
440 985 450 985 450 975 440 975 
530 985 810 985 810 975 530 975 
890 985 990 985 990 975 890 975 
1070 985 1150 985 1150 975 1070 975 
1240 985 1350 985 1350 975 1240 975 
1440 985 1530 985 1530 975 1440 975 
1610 985 1730 985 1730 975 1610 975 
1820 985 1890 985 1890 975 1820 975 
1980 985 2090 985 2090 975 1980 975 
2140 985 2390 985 2390 975 2140 975 
2440 985 2510 985 2510 975 2440 975 
2560 985 2610 985 2610 975 2560 975 
2660 985 2750 985 2750 975 2660 975 
2800 985 2920 985 2920 975 2800 975 
3050 985 3090 985 3090 975 3050 975 
3180 985 3290 985 3290 975 3180 975 
3380 985 3440 985 3440 975 3380 975 
3540 985 3810 985 3810 975 3540 975 
3900 985 3950 985 3950 975 3900 975 
4000 985 4150 985 4150 975 4000 975 
4240 985 4330 985 4330 975 4240 975 
4380 985 4390 985 4390 975 4380 975 
4440 985 4570 985 4570 975 4440 975 
4620 985 4810 985 4810 975 4620 975 
4860 985 4940 985 4940 975 4860 975 
5070 985 5120 985 5120 975 5070 975 
5220 985 5280 985 5280 975 5220 975 
5380 985 5410 985 5410 975 5380 975 
5460 985 5490 985 5490 975 5460 975 
5540 985 5610 985 5610 975 5540 975 
5660 985 5670 985 5670 975 5660 975 
5720 985 5750 985 5750 975 5720 975 
5830 985 6130 985 6130 975 5830 975 
6210 985 6290 985 6290 975 6210 975 
6370 985 6490 985 6490 975 6370 975 
6640 985 6690 985 6690 975 6640 975 
6780 985 6850 985 6850 975 6780 975 
6900 985 6910 985 6910 975 6900 975 
6960 985 7090 985 7090 975 6960 975 
7140 985 8220 985 8220 975 7140 975 
0 1005 150 1005 150 995 0 995 
240 1005 5430 1005 5430 995 240 995 
5520 1005 8220 1005 8220 995 5520 995 
0 1025 190 1025 190 1015 0 1015 
220 1025 1170 1025 1170 1015 220 1015 
1270 1025 1370 1025 1370 1015 1270 1015 
1420 1025 1750 1025 1750 1015 1420 1015 
1800 1025 1910 1025 1910 1015 1800 1015 
1960 1025 3110 1025 3110 1015 1960 1015 
3160 1025 3310 1025 3310 1015 3160 1015 
3360 1025 3830 1025 3830 1015 3360 1015 
3880 1025 4170 1025 4170 1015 3880 1015 
4220 1025 5470 1025 5470 1015 4220 1015 
5500 1025 6710 1025 6710 1015 5500 1015 
6810 1025 8220 1025 8220 1015 6810 1015 
0 1045 1190 1045 1190 1035 0 1035 
1230 1045 1390 1045 1390 1035 1230 1035 
1430 1045 1770 1045 1770 1035 1430 1035 
1810 1045 1930 1045 1930 1035 1810 1035 
1970 1045 3130 1045 3130 1035 1970 1035 
3170 1045 3330 1045 3330 1035 3170 1035 
3370 1045 3850 1045 3850 1035 3370 1035 
3890 1045 4190 1045 4190 1035 3890 1035 
4230 1045 6730 1045 6730 1035 4230 1035 
6770 1045 8220 1045 8220 1035 6770 1035 
0 1065 370 1065 370 1055 0 1055 
440 1065 570 1065 570 1055 440 1055 
620 1065 650 1065 650 1055 620 1055 
740 1065 1140 1065 1140 1055 740 1055 
1240 1065 1340 1065 1340 1055 1240 1055 
1440 1065 1720 1065 1720 1055 1440 1055 
1820 1065 1880 1065 1880 1055 1820 1055 
1980 1065 2070 1065 2070 1055 1980 1055 
2140 1065 2190 1065 2190 1055 2140 1055 
2280 1065 2370 1065 2370 1055 2280 1055 
2440 1065 2590 1065 2590 1055 2440 1055 
2660 1065 2850 1065 2850 1055 2660 1055 
2900 1065 3080 1065 3080 1055 2900 1055 
3180 1065 3280 1065 3280 1055 3180 1055 
3380 1065 3610 1065 3610 1055 3380 1055 
3660 1065 3690 1065 3690 1055 3660 1055 
3780 1065 3800 1065 3800 1055 3780 1055 
3900 1065 4070 1065 4070 1055 3900 1055 
4120 1065 4140 1065 4140 1055 4120 1055 
4240 1065 4330 1065 4330 1055 4240 1055 
4400 1065 4550 1065 4550 1055 4400 1055 
4620 1065 4710 1065 4710 1055 4620 1055 
4760 1065 5910 1065 5910 1055 4760 1055 
5960 1065 6070 1065 6070 1055 5960 1055 
6120 1065 6680 1065 6680 1055 6120 1055 
6780 1065 6850 1065 6850 1055 6780 1055 
6920 1065 7070 1065 7070 1055 6920 1055 
7140 1065 8220 1065 8220 1055 7140 1055 
0 1105 50 1105 50 1095 0 1095 
100 1105 130 1105 130 1095 100 1095 
220 1105 680 1105 680 1095 220 1095 
780 1105 1920 1105 1920 1095 780 1095 
2020 1105 2210 1105 2210 1095 2020 1095 
2280 1105 2330 1105 2330 1095 2280 1095 
2420 1105 2470 1105 2470 1095 2420 1095 
2540 1105 3100 1105 3100 1095 2540 1095 
3200 1105 3290 1105 3290 1095 3200 1095 
3360 1105 3840 1105 3840 1095 3360 1095 
3940 1105 3990 1105 3990 1095 3940 1095 
4060 1105 4200 1105 4200 1095 4060 1095 
4300 1105 4420 1105 4420 1095 4300 1095 
4520 1105 4780 1105 4780 1095 4520 1095 
4880 1105 5160 1105 5160 1095 4880 1095 
5260 1105 5670 1105 5670 1095 5260 1095 
5760 1105 5790 1105 5790 1095 5760 1095 
5840 1105 6130 1105 6130 1095 5840 1095 
6200 1105 6230 1105 6230 1095 6200 1095 
6300 1105 6880 1105 6880 1095 6300 1095 
6980 1105 7450 1105 7450 1095 6980 1095 
7500 1105 8220 1105 8220 1095 7500 1095 
0 1125 730 1125 730 1115 0 1115 
770 1125 1970 1125 1970 1115 770 1115 
2010 1125 3150 1125 3150 1115 2010 1115 
3190 1125 3890 1125 3890 1115 3190 1115 
3930 1125 4250 1125 4250 1115 3930 1115 
4290 1125 4470 1125 4470 1115 4290 1115 
4510 1125 4830 1125 4830 1115 4510 1115 
4870 1125 5210 1125 5210 1115 4870 1115 
5250 1125 6930 1125 6930 1115 5250 1115 
6970 1125 8220 1125 8220 1115 6970 1115 
0 1145 330 1145 330 1135 0 1135 
360 1145 710 1145 710 1135 360 1135 
760 1145 1950 1145 1950 1135 760 1135 
2000 1145 2670 1145 2670 1135 2000 1135 
2700 1145 2850 1145 2850 1135 2700 1135 
2880 1145 3130 1145 3130 1135 2880 1135 
3180 1145 3870 1145 3870 1135 3180 1135 
3920 1145 4230 1145 4230 1135 3920 1135 
4330 1145 4450 1145 4450 1135 4330 1135 
4550 1145 4810 1145 4810 1135 4550 1135 
4910 1145 5190 1145 5190 1135 4910 1135 
5290 1145 6790 1145 6790 1135 5290 1135 
6820 1145 6910 1145 6910 1135 6820 1135 
6960 1145 7610 1145 7610 1135 6960 1135 
7640 1145 8220 1145 8220 1135 7640 1135 
0 1165 290 1165 290 1155 0 1155 
380 1165 2630 1165 2630 1155 380 1155 
2720 1165 2810 1165 2810 1155 2720 1155 
2900 1165 6750 1165 6750 1155 2900 1155 
6840 1165 7570 1165 7570 1155 6840 1155 
7660 1165 8220 1165 8220 1155 7660 1155 
0 1185 270 1185 270 1175 0 1175 
320 1185 350 1185 350 1175 320 1175 
400 1185 480 1185 480 1175 400 1175 
580 1185 690 1185 690 1175 580 1175 
780 1185 890 1185 890 1175 780 1175 
970 1185 1070 1185 1070 1175 970 1175 
1150 1185 1220 1185 1220 1175 1150 1175 
1350 1185 1470 1185 1470 1175 1350 1175 
1550 1185 1580 1185 1580 1175 1550 1175 
1710 1185 1770 1185 1770 1175 1710 1175 
1850 1185 1930 1185 1930 1175 1850 1175 
2020 1185 2030 1185 2030 1175 2020 1175 
2110 1185 2230 1185 2230 1175 2110 1175 
2280 1185 2470 1185 2470 1175 2280 1175 
2520 1185 2530 1185 2530 1175 2520 1175 
2580 1185 2610 1185 2610 1175 2580 1175 
2660 1185 2690 1185 2690 1175 2660 1175 
2740 1185 2790 1185 2790 1175 2740 1175 
2840 1185 2870 1185 2870 1175 2840 1175 
2920 1185 2980 1185 2980 1175 2920 1175 
3080 1185 3110 1185 3110 1175 3080 1175 
3200 1185 3310 1185 3310 1175 3200 1175 
3360 1185 3380 1185 3380 1175 3360 1175 
3480 1185 3550 1185 3550 1175 3480 1175 
3730 1185 3850 1185 3850 1175 3730 1175 
3940 1185 3990 1185 3990 1175 3940 1175 
4040 1185 4050 1185 4050 1175 4040 1175 
4100 1185 4210 1185 4210 1175 4100 1175 
4300 1185 4430 1185 4430 1175 4300 1175 
4520 1185 4670 1185 4670 1175 4520 1175 
4720 1185 4790 1185 4790 1175 4720 1175 
4880 1185 4940 1185 4940 1175 4880 1175 
5070 1185 5170 1185 5170 1175 5070 1175 
5260 1185 5300 1185 5300 1175 5260 1175 
5430 1185 5500 1185 5500 1175 5430 1175 
5600 1185 5920 1185 5920 1175 5600 1175 
6020 1185 6150 1185 6150 1175 6020 1175 
6200 1185 6230 1185 6230 1175 6200 1175 
6280 1185 6290 1185 6290 1175 6280 1175 
6340 1185 6360 1185 6360 1175 6340 1175 
6460 1185 6520 1185 6520 1175 6460 1175 
6650 1185 6730 1185 6730 1175 6650 1175 
6780 1185 6810 1185 6810 1175 6780 1175 
6860 1185 6890 1185 6890 1175 6860 1175 
6980 1185 7050 1185 7050 1175 6980 1175 
7200 1185 7310 1185 7310 1175 7200 1175 
7360 1185 7550 1185 7550 1175 7360 1175 
7600 1185 7630 1185 7630 1175 7600 1175 
7680 1185 7690 1185 7690 1175 7680 1175 
7740 1185 7850 1185 7850 1175 7740 1175 
7930 1185 8220 1185 8220 1175 7930 1175 
0 1225 10 1225 10 1215 0 1215 
90 1225 130 1225 130 1215 90 1215 
180 1225 190 1225 190 1215 180 1215 
240 1225 310 1225 310 1215 240 1215 
360 1225 450 1225 450 1215 360 1215 
500 1225 670 1225 670 1215 500 1215 
760 1225 850 1225 850 1215 760 1215 
900 1225 990 1225 990 1215 900 1215 
1070 1225 1170 1225 1170 1215 1070 1215 
1220 1225 1310 1225 1310 1215 1220 1215 
1400 1225 1450 1225 1450 1215 1400 1215 
1530 1225 1580 1225 1580 1215 1530 1215 
1710 1225 1770 1225 1770 1215 1710 1215 
1850 1225 1990 1225 1990 1215 1850 1215 
2040 1225 2170 1225 2170 1215 2040 1215 
2220 1225 2270 1225 2270 1215 2220 1215 
2320 1225 2370 1225 2370 1215 2320 1215 
2450 1225 2530 1225 2530 1215 2450 1215 
2580 1225 2610 1225 2610 1215 2580 1215 
2660 1225 2850 1225 2850 1215 2660 1215 
2930 1225 3050 1225 3050 1215 2930 1215 
3130 1225 3190 1225 3190 1215 3130 1215 
3270 1225 3470 1225 3470 1215 3270 1215 
3560 1225 3660 1225 3660 1215 3560 1215 
3790 1225 3810 1225 3810 1215 3790 1215 
3860 1225 3890 1225 3890 1215 3860 1215 
3940 1225 4290 1225 4290 1215 3940 1215 
4340 1225 4410 1225 4410 1215 4340 1215 
4490 1225 4580 1225 4580 1215 4490 1215 
4710 1225 4860 1225 4860 1215 4710 1215 
4960 1225 5030 1225 5030 1215 4960 1215 
5120 1225 5250 1225 5250 1215 5120 1215 
5300 1225 5350 1225 5350 1215 5300 1215 
5430 1225 5470 1225 5470 1215 5430 1215 
5520 1225 5550 1225 5550 1215 5520 1215 
5600 1225 5630 1225 5630 1215 5600 1215 
5720 1225 5790 1225 5790 1215 5720 1215 
5870 1225 5930 1225 5930 1215 5870 1215 
5980 1225 6010 1225 6010 1215 5980 1215 
6060 1225 6090 1225 6090 1215 6060 1215 
6140 1225 6230 1225 6230 1215 6140 1215 
6280 1225 6390 1225 6390 1215 6280 1215 
6440 1225 6590 1225 6590 1215 6440 1215 
6640 1225 6650 1225 6650 1215 6640 1215 
6700 1225 6750 1225 6750 1215 6700 1215 
6800 1225 6850 1225 6850 1215 6800 1215 
6900 1225 6910 1225 6910 1215 6900 1215 
6960 1225 7070 1225 7070 1215 6960 1215 
7150 1225 7250 1225 7250 1215 7150 1215 
7340 1225 8220 1225 8220 1215 7340 1215 
0 1245 2550 1245 2550 1235 0 1235 
2640 1245 3830 1245 3830 1235 2640 1235 
3920 1245 5490 1245 5490 1235 3920 1235 
5580 1245 6030 1245 6030 1235 5580 1235 
6120 1245 8220 1245 8220 1235 6120 1235 
0 1265 690 1265 690 1255 0 1255 
790 1265 1330 1265 1330 1255 790 1255 
1430 1265 2590 1265 2590 1255 1430 1255 
2620 1265 3490 1265 3490 1255 2620 1255 
3590 1265 3870 1265 3870 1255 3590 1255 
3900 1265 5050 1265 5050 1255 3900 1255 
5150 1265 5530 1265 5530 1255 5150 1255 
5560 1265 5650 1265 5650 1255 5560 1255 
5700 1265 6070 1265 6070 1255 5700 1255 
6100 1265 7270 1265 7270 1255 6100 1255 
7370 1265 8220 1265 8220 1255 7370 1255 
0 1285 710 1285 710 1275 0 1275 
750 1285 1350 1285 1350 1275 750 1275 
1390 1285 3510 1285 3510 1275 1390 1275 
3550 1285 5070 1285 5070 1275 3550 1275 
5110 1285 5670 1285 5670 1275 5110 1275 
5710 1285 7290 1285 7290 1275 5710 1275 
7330 1285 8220 1285 8220 1275 7330 1275 
0 1305 130 1305 130 1295 0 1295 
200 1305 430 1305 430 1295 200 1295 
500 1305 510 1305 510 1295 500 1295 
600 1305 660 1305 660 1295 600 1295 
760 1305 830 1305 830 1295 760 1295 
900 1305 1150 1305 1150 1295 900 1295 
1220 1305 1300 1305 1300 1295 1220 1295 
1400 1305 1970 1305 1970 1295 1400 1295 
2040 1305 2090 1305 2090 1295 2040 1295 
2140 1305 2750 1305 2750 1295 2140 1295 
2800 1305 3370 1305 3370 1295 2800 1295 
3420 1305 3460 1305 3460 1295 3420 1295 
3560 1305 4030 1305 4030 1295 3560 1295 
4080 1305 4110 1305 4110 1295 4080 1295 
4160 1305 4270 1305 4270 1295 4160 1295 
4340 1305 4750 1305 4750 1295 4340 1295 
4800 1305 5020 1305 5020 1295 4800 1295 
5120 1305 5620 1305 5620 1295 5120 1295 
5720 1305 6510 1305 6510 1295 5720 1295 
6560 1305 6590 1305 6590 1295 6560 1295 
6660 1305 6850 1305 6850 1295 6660 1295 
6920 1305 7240 1305 7240 1295 6920 1295 
7340 1305 8220 1305 8220 1295 7340 1295 
0 1345 30 1345 30 1335 0 1335 
80 1345 150 1345 150 1335 80 1335 
200 1345 210 1345 210 1335 200 1335 
260 1345 850 1345 850 1335 260 1335 
940 1345 1250 1345 1250 1335 940 1335 
1300 1345 1460 1345 1460 1335 1300 1335 
1560 1345 1890 1345 1890 1335 1560 1335 
1940 1345 2420 1345 2420 1335 1940 1335 
2520 1345 2650 1345 2650 1335 2520 1335 
2700 1345 2750 1345 2750 1335 2700 1335 
2800 1345 2910 1345 2910 1335 2800 1335 
2980 1345 3250 1345 3250 1335 2980 1335 
3320 1345 3530 1345 3530 1335 3320 1335 
3580 1345 3820 1345 3820 1335 3580 1335 
3920 1345 4060 1345 4060 1335 3920 1335 
4160 1345 4370 1345 4370 1335 4160 1335 
4420 1345 4920 1345 4920 1335 4420 1335 
5020 1345 5250 1345 5250 1335 5020 1335 
5300 1345 5450 1345 5450 1335 5300 1335 
5520 1345 5580 1345 5580 1335 5520 1335 
5680 1345 5770 1345 5770 1335 5680 1335 
5860 1345 5880 1345 5880 1335 5860 1335 
5980 1345 6390 1345 6390 1335 5980 1335 
6460 1345 8220 1345 8220 1335 6460 1335 
0 1365 1510 1365 1510 1355 0 1355 
1550 1365 2470 1365 2470 1355 1550 1355 
2510 1365 3870 1365 3870 1355 2510 1355 
3910 1365 4110 1365 4110 1355 3910 1355 
4150 1365 4970 1365 4970 1355 4150 1355 
5010 1365 5630 1365 5630 1355 5010 1355 
5670 1365 5930 1365 5930 1355 5670 1355 
5970 1365 8220 1365 8220 1355 5970 1355 
0 1385 710 1385 710 1375 0 1375 
740 1385 1490 1385 1490 1375 740 1375 
1590 1385 2450 1385 2450 1375 1590 1375 
2500 1385 3670 1385 3670 1375 2500 1375 
3700 1385 3850 1385 3850 1375 3700 1375 
3900 1385 4090 1385 4090 1375 3900 1375 
4140 1385 4830 1385 4830 1375 4140 1375 
4860 1385 4950 1385 4950 1375 4860 1375 
5000 1385 5110 1385 5110 1375 5000 1375 
5140 1385 5370 1385 5370 1375 5140 1375 
5400 1385 5610 1385 5610 1375 5400 1375 
5660 1385 5910 1385 5910 1375 5660 1375 
6010 1385 6310 1385 6310 1375 6010 1375 
6340 1385 8220 1385 8220 1375 6340 1375 
0 1405 670 1405 670 1395 0 1395 
760 1405 3630 1405 3630 1395 760 1395 
3720 1405 4790 1405 4790 1395 3720 1395 
4880 1405 5070 1405 5070 1395 4880 1395 
5160 1405 5330 1405 5330 1395 5160 1395 
5420 1405 6270 1405 6270 1395 5420 1395 
6360 1405 8220 1405 8220 1395 6360 1395 
0 1425 290 1425 290 1415 0 1415 
340 1425 430 1425 430 1415 340 1415 
480 1425 510 1425 510 1415 480 1415 
590 1425 650 1425 650 1415 590 1415 
700 1425 730 1425 730 1415 700 1415 
780 1425 1010 1425 1010 1415 780 1415 
1090 1425 1110 1425 1110 1415 1090 1415 
1160 1425 1390 1425 1390 1415 1160 1415 
1440 1425 1470 1425 1470 1415 1440 1415 
1560 1425 1630 1425 1630 1415 1560 1415 
1680 1425 1740 1425 1740 1415 1680 1415 
1840 1425 1980 1425 1980 1415 1840 1415 
2110 1425 2180 1425 2180 1415 2110 1415 
2310 1425 2430 1425 2430 1415 2310 1415 
2620 1425 2930 1425 2930 1415 2620 1415 
2980 1425 3060 1425 3060 1415 2980 1415 
3160 1425 3250 1425 3250 1415 3160 1415 
3300 1425 3310 1425 3310 1415 3300 1415 
3360 1425 3370 1425 3370 1415 3360 1415 
3450 1425 3610 1425 3610 1415 3450 1415 
3660 1425 3690 1425 3690 1415 3660 1415 
3740 1425 3830 1425 3830 1415 3740 1415 
3920 1425 3930 1425 3930 1415 3920 1415 
3980 1425 4070 1425 4070 1415 3980 1415 
4160 1425 4210 1425 4210 1415 4160 1415 
4260 1425 4430 1425 4430 1415 4260 1415 
4480 1425 4510 1425 4510 1415 4480 1415 
4560 1425 4620 1425 4620 1415 4560 1415 
4720 1425 4770 1425 4770 1415 4720 1415 
4820 1425 4850 1425 4850 1415 4820 1415 
4900 1425 4930 1425 4930 1415 4900 1415 
5020 1425 5050 1425 5050 1415 5020 1415 
5100 1425 5130 1425 5130 1415 5100 1415 
5180 1425 5310 1425 5310 1415 5180 1415 
5360 1425 5390 1425 5390 1415 5360 1415 
5440 1425 5450 1425 5450 1415 5440 1415 
5500 1425 5510 1425 5510 1415 5500 1415 
5560 1425 5590 1425 5590 1415 5560 1415 
5680 1425 5890 1425 5890 1415 5680 1415 
5980 1425 6050 1425 6050 1415 5980 1415 
6100 1425 6170 1425 6170 1415 6100 1415 
6220 1425 6250 1425 6250 1415 6220 1415 
6300 1425 6330 1425 6330 1415 6300 1415 
6380 1425 6390 1425 6390 1415 6380 1415 
6440 1425 6450 1425 6450 1415 6440 1415 
6500 1425 6540 1425 6540 1415 6500 1415 
6670 1425 8220 1425 8220 1415 6670 1415 
0 1465 90 1465 90 1455 0 1455 
140 1465 170 1465 170 1455 140 1455 
260 1465 310 1465 310 1455 260 1455 
360 1465 370 1465 370 1455 360 1455 
420 1465 450 1465 450 1455 420 1455 
540 1465 590 1465 590 1455 540 1455 
640 1465 850 1465 850 1455 640 1455 
900 1465 910 1465 910 1455 900 1455 
960 1465 1110 1465 1110 1455 960 1455 
1160 1465 1170 1465 1170 1455 1160 1455 
1220 1465 1250 1465 1250 1455 1220 1455 
1300 1465 1320 1465 1320 1455 1300 1455 
1420 1465 1460 1465 1460 1455 1420 1455 
1560 1465 1590 1465 1590 1455 1560 1455 
1670 1465 1750 1465 1750 1455 1670 1455 
1830 1465 1890 1465 1890 1455 1830 1455 
1980 1465 2030 1465 2030 1455 1980 1455 
2080 1465 2110 1465 2110 1455 2080 1455 
2160 1465 2250 1465 2250 1455 2160 1455 
2330 1465 2370 1465 2370 1455 2330 1455 
2420 1465 2430 1465 2430 1455 2420 1455 
2480 1465 2530 1465 2530 1455 2480 1455 
2580 1465 2710 1465 2710 1455 2580 1455 
2890 1465 2980 1465 2980 1455 2890 1455 
3080 1465 3190 1465 3190 1455 3080 1455 
3240 1465 3310 1465 3310 1455 3240 1455 
3360 1465 3370 1465 3370 1455 3360 1455 
3420 1465 3450 1465 3450 1455 3420 1455 
3540 1465 3610 1465 3610 1455 3540 1455 
3690 1465 3790 1465 3790 1455 3690 1455 
3840 1465 3890 1465 3890 1455 3840 1455 
3970 1465 4070 1465 4070 1455 3970 1455 
4160 1465 4270 1465 4270 1455 4160 1455 
4360 1465 4530 1465 4530 1455 4360 1455 
4580 1465 4610 1465 4610 1455 4580 1455 
4660 1465 4770 1465 4770 1455 4660 1455 
4860 1465 4990 1465 4990 1455 4860 1455 
5070 1465 5130 1465 5130 1455 5070 1455 
5180 1465 5190 1465 5190 1455 5180 1455 
5240 1465 5330 1465 5330 1455 5240 1455 
5380 1465 5410 1465 5410 1455 5380 1455 
5460 1465 5500 1465 5500 1455 5460 1455 
5630 1465 5730 1465 5730 1455 5630 1455 
5780 1465 5990 1465 5990 1455 5780 1455 
6040 1465 6070 1465 6070 1455 6040 1455 
6120 1465 6190 1465 6190 1455 6120 1455 
6240 1465 6310 1465 6310 1455 6240 1455 
6400 1465 6650 1465 6650 1455 6400 1455 
6740 1465 6810 1465 6810 1455 6740 1455 
6900 1465 7030 1465 7030 1455 6900 1455 
7120 1465 7180 1465 7180 1455 7120 1455 
7280 1465 8220 1465 8220 1455 7280 1455 
0 1485 2050 1485 2050 1475 0 1475 
2140 1485 4550 1485 4550 1475 2140 1475 
4640 1485 5350 1485 5350 1475 4640 1475 
5440 1485 6010 1485 6010 1475 5440 1475 
6100 1485 8220 1485 8220 1475 6100 1475 
0 1505 190 1505 190 1495 0 1495 
240 1505 470 1505 470 1495 240 1495 
520 1505 1910 1505 1910 1495 520 1495 
1960 1505 2090 1505 2090 1495 1960 1495 
2120 1505 3470 1505 3470 1495 2120 1495 
3570 1505 4090 1505 4090 1495 3570 1495 
4140 1505 4290 1505 4290 1495 4140 1495 
4340 1505 4590 1505 4590 1495 4340 1495 
4620 1505 4790 1505 4790 1495 4620 1495 
4890 1505 5390 1505 5390 1495 4890 1495 
5420 1505 6050 1505 6050 1495 5420 1495 
6080 1505 6330 1505 6330 1495 6080 1495 
6430 1505 6670 1505 6670 1495 6430 1495 
6770 1505 6830 1505 6830 1495 6770 1495 
6880 1505 7050 1505 7050 1495 6880 1495 
7100 1505 8220 1505 8220 1495 7100 1495 
0 1525 210 1525 210 1515 0 1515 
250 1525 490 1525 490 1515 250 1515 
530 1525 1930 1525 1930 1515 530 1515 
1970 1525 3490 1525 3490 1515 1970 1515 
3530 1525 4110 1525 4110 1515 3530 1515 
4150 1525 4310 1525 4310 1515 4150 1515 
4350 1525 4810 1525 4810 1515 4350 1515 
4850 1525 6350 1525 6350 1515 4850 1515 
6390 1525 6690 1525 6690 1515 6390 1515 
6730 1525 6850 1525 6850 1515 6730 1515 
6890 1525 7070 1525 7070 1515 6890 1515 
7110 1525 8220 1525 8220 1515 7110 1515 
0 1545 160 1545 160 1535 0 1535 
260 1545 310 1545 310 1535 260 1535 
380 1545 440 1545 440 1535 380 1535 
540 1545 730 1545 730 1535 540 1535 
820 1545 850 1545 850 1535 820 1535 
920 1545 990 1545 990 1535 920 1535 
1080 1545 1110 1545 1110 1535 1080 1535 
1180 1545 1880 1545 1880 1535 1180 1535 
1980 1545 2370 1545 2370 1535 1980 1535 
2440 1545 2510 1545 2510 1535 2440 1535 
2580 1545 2690 1545 2690 1535 2580 1535 
2760 1545 3110 1545 3110 1535 2760 1535 
3160 1545 3310 1545 3310 1535 3160 1535 
3380 1545 3440 1545 3440 1535 3380 1535 
3540 1545 4060 1545 4060 1535 3540 1535 
4160 1545 4260 1545 4260 1535 4160 1535 
4360 1545 4390 1545 4390 1535 4360 1535 
4440 1545 4760 1545 4760 1535 4440 1535 
4860 1545 5130 1545 5130 1535 4860 1535 
5200 1545 5850 1545 5850 1535 5200 1535 
5940 1545 6170 1545 6170 1535 5940 1535 
6240 1545 6300 1545 6300 1535 6240 1535 
6400 1545 6490 1545 6490 1535 6400 1535 
6540 1545 6640 1545 6640 1535 6540 1535 
6740 1545 6800 1545 6800 1535 6740 1535 
6900 1545 6930 1545 6930 1535 6900 1535 
6980 1545 7020 1545 7020 1535 6980 1535 
7120 1545 7310 1545 7310 1535 7120 1535 
7400 1545 8220 1545 8220 1535 7400 1535 
0 1585 30 1585 30 1575 0 1575 
100 1585 200 1585 200 1575 100 1575 
300 1585 330 1585 330 1575 300 1575 
400 1585 500 1585 500 1575 400 1575 
600 1585 630 1585 630 1575 600 1575 
700 1585 830 1585 830 1575 700 1575 
900 1585 1010 1585 1010 1575 900 1575 
1080 1585 1170 1585 1170 1575 1080 1575 
